<?xml version="1.0" encoding="utf-8"?>
<!DOCTYPE eagle SYSTEM "eagle.dtd">
<eagle version="7.2.0">
<drawing>
<settings>
<setting alwaysvectorfont="yes"/>
<setting verticaltext="up"/>
</settings>
<grid distance="1" unitdist="mm" unit="mm" style="lines" multiple="1" display="yes" altdistance="0.1" altunitdist="mm" altunit="mm"/>
<layers>
<layer number="1" name="Top" color="4" fill="1" visible="yes" active="yes"/>
<layer number="16" name="Bottom" color="1" fill="1" visible="yes" active="yes"/>
<layer number="17" name="Pads" color="2" fill="1" visible="yes" active="yes"/>
<layer number="18" name="Vias" color="2" fill="1" visible="yes" active="yes"/>
<layer number="19" name="Unrouted" color="6" fill="1" visible="yes" active="yes"/>
<layer number="20" name="Dimension" color="15" fill="1" visible="yes" active="yes"/>
<layer number="21" name="tPlace" color="16" fill="1" visible="yes" active="yes"/>
<layer number="22" name="bPlace" color="14" fill="1" visible="yes" active="yes"/>
<layer number="23" name="tOrigins" color="15" fill="1" visible="yes" active="yes"/>
<layer number="24" name="bOrigins" color="15" fill="1" visible="yes" active="yes"/>
<layer number="25" name="tNames" color="7" fill="1" visible="no" active="yes"/>
<layer number="26" name="bNames" color="7" fill="1" visible="no" active="yes"/>
<layer number="27" name="tValues" color="7" fill="1" visible="no" active="yes"/>
<layer number="28" name="bValues" color="7" fill="1" visible="no" active="yes"/>
<layer number="29" name="tStop" color="7" fill="3" visible="no" active="yes"/>
<layer number="30" name="bStop" color="7" fill="6" visible="no" active="yes"/>
<layer number="31" name="tCream" color="7" fill="4" visible="no" active="yes"/>
<layer number="32" name="bCream" color="7" fill="5" visible="no" active="yes"/>
<layer number="33" name="tFinish" color="6" fill="3" visible="no" active="yes"/>
<layer number="34" name="bFinish" color="6" fill="6" visible="no" active="yes"/>
<layer number="35" name="tGlue" color="7" fill="4" visible="no" active="yes"/>
<layer number="36" name="bGlue" color="7" fill="5" visible="no" active="yes"/>
<layer number="37" name="tTest" color="7" fill="1" visible="no" active="yes"/>
<layer number="38" name="bTest" color="7" fill="1" visible="no" active="yes"/>
<layer number="39" name="tKeepout" color="4" fill="11" visible="no" active="yes"/>
<layer number="40" name="bKeepout" color="1" fill="11" visible="no" active="yes"/>
<layer number="41" name="tRestrict" color="4" fill="10" visible="no" active="yes"/>
<layer number="42" name="bRestrict" color="1" fill="10" visible="no" active="yes"/>
<layer number="43" name="vRestrict" color="2" fill="10" visible="no" active="yes"/>
<layer number="44" name="Drills" color="7" fill="1" visible="no" active="yes"/>
<layer number="45" name="Holes" color="7" fill="1" visible="yes" active="yes"/>
<layer number="46" name="Milling" color="3" fill="1" visible="no" active="yes"/>
<layer number="47" name="Measures" color="7" fill="1" visible="no" active="yes"/>
<layer number="48" name="Document" color="7" fill="1" visible="no" active="yes"/>
<layer number="49" name="Reference" color="7" fill="1" visible="no" active="yes"/>
<layer number="50" name="dxf" color="7" fill="1" visible="no" active="yes"/>
<layer number="51" name="tDocu" color="6" fill="1" visible="yes" active="yes"/>
<layer number="52" name="bDocu" color="7" fill="1" visible="no" active="yes"/>
<layer number="53" name="tGND_GNDA" color="7" fill="9" visible="no" active="no"/>
<layer number="54" name="bGND_GNDA" color="1" fill="9" visible="no" active="no"/>
<layer number="56" name="wert" color="7" fill="1" visible="no" active="yes"/>
<layer number="57" name="tCAD" color="7" fill="1" visible="no" active="no"/>
<layer number="90" name="Modules" color="5" fill="1" visible="no" active="no"/>
<layer number="91" name="Nets" color="2" fill="1" visible="no" active="no"/>
<layer number="92" name="Busses" color="1" fill="1" visible="no" active="no"/>
<layer number="93" name="Pins" color="2" fill="1" visible="no" active="no"/>
<layer number="94" name="Symbols" color="4" fill="1" visible="no" active="no"/>
<layer number="95" name="Names" color="7" fill="1" visible="no" active="no"/>
<layer number="96" name="Values" color="7" fill="1" visible="no" active="no"/>
<layer number="97" name="Info" color="7" fill="1" visible="no" active="no"/>
<layer number="98" name="Guide" color="6" fill="1" visible="no" active="no"/>
<layer number="99" name="SpiceOrder" color="7" fill="1" visible="no" active="no"/>
<layer number="100" name="Muster" color="7" fill="1" visible="no" active="no"/>
<layer number="101" name="Patch_Top" color="12" fill="4" visible="no" active="yes"/>
<layer number="102" name="Vscore" color="7" fill="1" visible="no" active="yes"/>
<layer number="103" name="fp3" color="7" fill="1" visible="no" active="yes"/>
<layer number="104" name="Name" color="7" fill="1" visible="no" active="yes"/>
<layer number="105" name="Beschreib" color="9" fill="1" visible="no" active="yes"/>
<layer number="106" name="BGA-Top" color="4" fill="1" visible="no" active="yes"/>
<layer number="107" name="BD-Top" color="5" fill="1" visible="no" active="yes"/>
<layer number="108" name="fp8" color="7" fill="1" visible="no" active="yes"/>
<layer number="109" name="fp9" color="7" fill="1" visible="no" active="yes"/>
<layer number="110" name="fp0" color="7" fill="1" visible="no" active="yes"/>
<layer number="111" name="LPC17xx" color="7" fill="1" visible="no" active="yes"/>
<layer number="112" name="tSilk" color="7" fill="1" visible="no" active="yes"/>
<layer number="113" name="IDFDebug" color="4" fill="1" visible="no" active="yes"/>
<layer number="116" name="Patch_BOT" color="9" fill="4" visible="no" active="yes"/>
<layer number="121" name="_tsilk" color="7" fill="1" visible="no" active="yes"/>
<layer number="122" name="_bsilk" color="7" fill="1" visible="no" active="yes"/>
<layer number="123" name="tTestmark" color="7" fill="1" visible="no" active="yes"/>
<layer number="124" name="bTestmark" color="7" fill="1" visible="no" active="yes"/>
<layer number="125" name="_tNames" color="7" fill="1" visible="no" active="yes"/>
<layer number="126" name="_bNames" color="7" fill="1" visible="no" active="yes"/>
<layer number="127" name="_tValues" color="7" fill="1" visible="no" active="yes"/>
<layer number="128" name="_bValues" color="7" fill="1" visible="no" active="yes"/>
<layer number="131" name="tAdjust" color="7" fill="1" visible="no" active="yes"/>
<layer number="132" name="bAdjust" color="7" fill="1" visible="no" active="yes"/>
<layer number="144" name="Drill_legend" color="7" fill="1" visible="no" active="yes"/>
<layer number="150" name="Notes" color="7" fill="1" visible="no" active="yes"/>
<layer number="151" name="HeatSink" color="7" fill="1" visible="no" active="yes"/>
<layer number="152" name="_bDocu" color="7" fill="1" visible="no" active="yes"/>
<layer number="153" name="FabDoc1" color="6" fill="1" visible="no" active="no"/>
<layer number="154" name="FabDoc2" color="2" fill="1" visible="no" active="no"/>
<layer number="155" name="FabDoc3" color="7" fill="15" visible="no" active="no"/>
<layer number="199" name="Contour" color="7" fill="1" visible="no" active="yes"/>
<layer number="200" name="200bmp" color="1" fill="10" visible="no" active="yes"/>
<layer number="201" name="201bmp" color="2" fill="1" visible="no" active="no"/>
<layer number="202" name="202bmp" color="3" fill="1" visible="no" active="no"/>
<layer number="203" name="203bmp" color="4" fill="10" visible="no" active="yes"/>
<layer number="204" name="204bmp" color="5" fill="10" visible="no" active="yes"/>
<layer number="205" name="205bmp" color="6" fill="10" visible="no" active="yes"/>
<layer number="206" name="206bmp" color="7" fill="10" visible="no" active="yes"/>
<layer number="207" name="207bmp" color="8" fill="10" visible="no" active="yes"/>
<layer number="208" name="208bmp" color="9" fill="10" visible="no" active="yes"/>
<layer number="209" name="209bmp" color="7" fill="1" visible="no" active="yes"/>
<layer number="210" name="210bmp" color="7" fill="1" visible="no" active="yes"/>
<layer number="211" name="211bmp" color="7" fill="1" visible="no" active="yes"/>
<layer number="212" name="212bmp" color="7" fill="1" visible="no" active="yes"/>
<layer number="213" name="213bmp" color="7" fill="1" visible="no" active="yes"/>
<layer number="214" name="214bmp" color="7" fill="1" visible="no" active="yes"/>
<layer number="215" name="215bmp" color="7" fill="1" visible="no" active="yes"/>
<layer number="216" name="216bmp" color="7" fill="1" visible="no" active="yes"/>
<layer number="217" name="217bmp" color="18" fill="1" visible="no" active="no"/>
<layer number="218" name="218bmp" color="19" fill="1" visible="no" active="no"/>
<layer number="219" name="219bmp" color="20" fill="1" visible="no" active="no"/>
<layer number="220" name="220bmp" color="21" fill="1" visible="no" active="no"/>
<layer number="221" name="221bmp" color="22" fill="1" visible="no" active="no"/>
<layer number="222" name="222bmp" color="23" fill="1" visible="no" active="no"/>
<layer number="223" name="223bmp" color="24" fill="1" visible="no" active="no"/>
<layer number="224" name="224bmp" color="25" fill="1" visible="no" active="no"/>
<layer number="248" name="Housing" color="7" fill="1" visible="no" active="yes"/>
<layer number="249" name="Edge" color="7" fill="1" visible="no" active="yes"/>
<layer number="250" name="Descript" color="7" fill="1" visible="no" active="no"/>
<layer number="251" name="SMDround" color="7" fill="1" visible="no" active="no"/>
<layer number="254" name="cooling" color="7" fill="1" visible="no" active="yes"/>
</layers>
<board>
<plain>
<wire x1="0" y1="13" x2="0" y2="59" width="0.254" layer="20"/>
<wire x1="48" y1="59" x2="48" y2="43" width="0.254" layer="20"/>
<wire x1="48" y1="43" x2="65" y2="43" width="0.254" layer="20"/>
<wire x1="49" y1="44" x2="65" y2="44" width="0.254" layer="20"/>
<wire x1="65" y1="44" x2="65" y2="75" width="0.254" layer="20"/>
<wire x1="65" y1="75" x2="49" y2="75" width="0.254" layer="20"/>
<wire x1="49" y1="75" x2="49" y2="44" width="0.254" layer="20"/>
<wire x1="0" y1="0" x2="49" y2="0" width="0.4064" layer="21"/>
<wire x1="49" y1="0" x2="49" y2="58" width="0.4064" layer="21"/>
<wire x1="49" y1="58" x2="0" y2="58" width="0.4064" layer="21"/>
<wire x1="0" y1="58" x2="0" y2="42" width="0.4064" layer="21"/>
<wire x1="49" y1="0" x2="65" y2="0" width="0.4064" layer="21"/>
<wire x1="65" y1="0" x2="65" y2="42" width="0.4064" layer="21"/>
<wire x1="65" y1="42" x2="0" y2="42" width="0.4064" layer="21"/>
<wire x1="0" y1="42" x2="0" y2="0" width="0.4064" layer="21"/>
<wire x1="0" y1="13" x2="48" y2="13" width="0.4064" layer="20"/>
<wire x1="48" y1="13" x2="48" y2="30" width="0.4064" layer="20"/>
<wire x1="48" y1="30" x2="65" y2="30" width="0.4064" layer="20"/>
<wire x1="65" y1="30" x2="65" y2="43" width="0.4064" layer="20"/>
<wire x1="16" y1="77" x2="16" y2="61" width="0.4064" layer="20"/>
<wire x1="16" y1="61" x2="45" y2="61" width="0.4064" layer="20"/>
<wire x1="45" y1="61" x2="45" y2="77" width="0.4064" layer="20"/>
<wire x1="45" y1="77" x2="16" y2="77" width="0.4064" layer="20"/>
<wire x1="0" y1="59" x2="0" y2="63" width="0.4064" layer="20"/>
<wire x1="0" y1="63" x2="10" y2="63" width="0.4064" layer="20"/>
<wire x1="10" y1="63" x2="10" y2="60" width="0.4064" layer="20"/>
<wire x1="10" y1="60" x2="48" y2="60" width="0.4064" layer="20"/>
<wire x1="48" y1="60" x2="48" y2="59" width="0.4064" layer="20"/>
</plain>
<libraries>
<library name="adafruit">
<packages>
<package name="FGPMMOPA6H">
<wire x1="-8" y1="8" x2="8" y2="8" width="0.127" layer="21"/>
<wire x1="8" y1="-8" x2="-8" y2="-8" width="0.127" layer="21"/>
<wire x1="-8" y1="8" x2="8" y2="8" width="0.127" layer="51"/>
<wire x1="8" y1="8" x2="8" y2="-8" width="0.127" layer="51"/>
<wire x1="8" y1="-8" x2="-8" y2="-8" width="0.127" layer="51"/>
<wire x1="-8" y1="-8" x2="-8" y2="8" width="0.127" layer="51"/>
<wire x1="8" y1="6" x2="8" y2="-6" width="0.127" layer="21"/>
<wire x1="8" y1="-7.5" x2="8" y2="-8" width="0.127" layer="21"/>
<wire x1="8" y1="8" x2="8" y2="7.5" width="0.127" layer="21"/>
<circle x="0.5" y="0.85" radius="0.5" width="0.8128" layer="51"/>
<circle x="-9.1" y="8.4" radius="0.3162" width="0.8128" layer="21"/>
<smd name="P$1" x="-7.5" y="6.75" dx="2" dy="1" layer="1"/>
<smd name="P$2" x="-7.5" y="5.25" dx="2" dy="1" layer="1"/>
<smd name="P$3" x="-7.5" y="3.75" dx="2" dy="1" layer="1"/>
<smd name="P$4" x="-7.5" y="2.25" dx="2" dy="1" layer="1"/>
<smd name="P$5" x="-7.5" y="0.75" dx="2" dy="1" layer="1"/>
<smd name="P$6" x="-7.5" y="-0.75" dx="2" dy="1" layer="1"/>
<smd name="P$7" x="-7.5" y="-2.25" dx="2" dy="1" layer="1"/>
<smd name="P$8" x="-7.5" y="-3.75" dx="2" dy="1" layer="1"/>
<smd name="P$9" x="-7.5" y="-5.25" dx="2" dy="1" layer="1"/>
<smd name="P$10" x="-7.5" y="-6.75" dx="2" dy="1" layer="1"/>
<smd name="P$11" x="7.5" y="-6.75" dx="2" dy="1" layer="1" rot="R180"/>
<smd name="P$12" x="7.5" y="-5.25" dx="2" dy="1" layer="1" rot="R180"/>
<smd name="P$13" x="7.5" y="-3.75" dx="2" dy="1" layer="1" rot="R180"/>
<smd name="P$14" x="7.5" y="-2.25" dx="2" dy="1" layer="1" rot="R180"/>
<smd name="P$15" x="7.5" y="-0.75" dx="2" dy="1" layer="1" rot="R180"/>
<smd name="P$16" x="7.5" y="0.75" dx="2" dy="1" layer="1" rot="R180"/>
<smd name="P$17" x="7.5" y="2.25" dx="2" dy="1" layer="1" rot="R180"/>
<smd name="P$18" x="7.5" y="3.75" dx="2" dy="1" layer="1" rot="R180"/>
<smd name="P$19" x="7.5" y="5.25" dx="2" dy="1" layer="1" rot="R180"/>
<smd name="P$20" x="7.5" y="6.75" dx="2" dy="1" layer="1" rot="R180"/>
<text x="-8" y="8.5" size="0.8128" layer="25" ratio="18">&gt;NAME</text>
<text x="-8" y="-9.5" size="0.4064" layer="27" ratio="10">&gt;VALUE</text>
<hole x="0.5" y="0.85" drill="3"/>
</package>
<package name="CR1220-SMD">
<wire x1="-9.84" y1="-1.64" x2="-6.66" y2="-1.64" width="0.127" layer="21"/>
<wire x1="-6.66" y1="-1.64" x2="-6.66" y2="-3.672" width="0.127" layer="21"/>
<wire x1="-6.66" y1="-3.672" x2="-3.826" y2="-6.66" width="0.127" layer="21"/>
<wire x1="-3.826" y1="-6.66" x2="3.98" y2="-6.66" width="0.127" layer="21"/>
<wire x1="3.98" y1="-6.66" x2="6.66" y2="-3.826" width="0.127" layer="21"/>
<wire x1="6.66" y1="-3.826" x2="6.66" y2="-1.54" width="0.127" layer="21"/>
<wire x1="6.66" y1="-1.54" x2="9.84" y2="-1.54" width="0.127" layer="21"/>
<wire x1="9.84" y1="-1.54" x2="9.84" y2="1.64" width="0.127" layer="21"/>
<wire x1="9.84" y1="1.64" x2="6.66" y2="1.64" width="0.127" layer="21"/>
<wire x1="6.66" y1="1.64" x2="6.66" y2="6.652" width="0.127" layer="21"/>
<wire x1="6.66" y1="6.652" x2="5.842" y2="6.652" width="0.127" layer="21"/>
<wire x1="5.842" y1="6.652" x2="3.702" y2="4.404" width="0.127" layer="21"/>
<wire x1="3.702" y1="4.404" x2="-3.048" y2="4.404" width="0.127" layer="21"/>
<wire x1="-3.048" y1="4.404" x2="-5.334" y2="6.652" width="0.127" layer="21"/>
<wire x1="-5.334" y1="6.652" x2="-6.66" y2="6.652" width="0.127" layer="21"/>
<wire x1="-6.66" y1="6.652" x2="-6.66" y2="1.64" width="0.127" layer="21"/>
<wire x1="-6.66" y1="1.64" x2="-9.84" y2="1.64" width="0.127" layer="21"/>
<wire x1="-9.84" y1="1.64" x2="-9.84" y2="-1.64" width="0.127" layer="21"/>
<circle x="-8.254" y="0" radius="0.9158" width="0.127" layer="21"/>
<circle x="8.4" y="0.154" radius="0.9158" width="0.127" layer="21"/>
<smd name="-" x="0" y="0" dx="3.9" dy="3.9" layer="1"/>
<smd name="+$1" x="-8.2" y="0" dx="3.2" dy="3.2" layer="1"/>
<smd name="+$2" x="8.2" y="0" dx="3.2" dy="3.2" layer="1"/>
<text x="-3.556" y="5.602" size="1.6764" layer="25" font="vector">&gt;NAME</text>
<text x="-4.318" y="-4.55" size="1.6764" layer="27" font="vector">&gt;VALUE</text>
</package>
</packages>
</library>
<library name="microchip-MCP125x-xxx">
<packages>
<package name="MSOP8">
<description>&lt;b&gt;Micro Small Outline Package&lt;/b&gt;
&lt;br&gt;&lt;span style="color: navy"&gt;Pitch\Grid:&lt;/span&gt;.65mm
&lt;br&gt;&lt;span style="color: navy"&gt;Pads:&lt;/span&gt; .35mm x .1mm
&lt;br&gt;
&lt;br&gt;Designed by Nathan Schulte - reklipz@gmail.com</description>
<wire x1="-1.4" y1="1.4" x2="1.4" y2="1.4" width="0.2032" layer="21"/>
<wire x1="1.4" y1="1.4" x2="1.4" y2="-1.4" width="0.2032" layer="21"/>
<wire x1="1.4" y1="-1.4" x2="-1.4" y2="-1.4" width="0.2032" layer="21"/>
<wire x1="-1.4" y1="-1.4" x2="-1.4" y2="1.4" width="0.2032" layer="21"/>
<circle x="-1" y="-1" radius="0.2" width="0" layer="21"/>
<smd name="1" x="-0.975" y="-2.05" dx="0.35" dy="1" layer="1"/>
<smd name="2" x="-0.325" y="-2.05" dx="0.35" dy="1" layer="1"/>
<smd name="3" x="0.325" y="-2.05" dx="0.35" dy="1" layer="1"/>
<smd name="4" x="0.975" y="-2.05" dx="0.35" dy="1" layer="1"/>
<smd name="5" x="0.975" y="2.05" dx="0.35" dy="1" layer="1"/>
<smd name="6" x="0.325" y="2.05" dx="0.35" dy="1" layer="1"/>
<smd name="7" x="-0.325" y="2.05" dx="0.35" dy="1" layer="1"/>
<smd name="8" x="-0.975" y="2.05" dx="0.35" dy="1" layer="1"/>
<text x="-1.15" y="0.15" size="1.016" layer="25">&gt;NAME</text>
<text x="-0.65" y="-1.05" size="1.016" layer="27">&gt;VALUE</text>
<rectangle x1="-1.1254" y1="-2.45" x2="-0.8254" y2="-1.5" layer="51"/>
<rectangle x1="-0.4751" y1="-2.45" x2="-0.1751" y2="-1.5" layer="51"/>
<rectangle x1="0.1751" y1="-2.45" x2="0.4751" y2="-1.5" layer="51"/>
<rectangle x1="0.8253" y1="-2.45" x2="1.1253" y2="-1.5" layer="51"/>
<rectangle x1="0.8254" y1="1.5" x2="1.1254" y2="2.45" layer="51"/>
<rectangle x1="0.1751" y1="1.5" x2="0.4751" y2="2.45" layer="51"/>
<rectangle x1="-0.4751" y1="1.5" x2="-0.1751" y2="2.45" layer="51"/>
<rectangle x1="-1.1253" y1="1.5" x2="-0.8253" y2="2.45" layer="51"/>
</package>
</packages>
</library>
<library name="SparkFun-Passives">
<description>&lt;h3&gt;SparkFun Electronics' preferred foot prints&lt;/h3&gt;
In this library you'll find resistors, capacitors, inductors, test points, jumper pads, etc.&lt;br&gt;&lt;br&gt;
We've spent an enormous amount of time creating and checking these footprints and parts, but it is the end user's responsibility to ensure correctness and suitablity for a given componet or application. If you enjoy using this library, please buy one of our products at www.sparkfun.com.
&lt;br&gt;&lt;br&gt;
&lt;b&gt;Licensing:&lt;/b&gt; Creative Commons ShareAlike 4.0 International - https://creativecommons.org/licenses/by-sa/4.0/ 
&lt;br&gt;&lt;br&gt;
You are welcome to use this library for commercial purposes. For attribution, we ask that when you begin to sell your device using our footprint, you email us with a link to the product being sold. We want bragging rights that we helped (in a very small part) to create your 8th world wonder. We would like the opportunity to feature your device on our homepage.</description>
<packages>
<package name="0603-RES">
<wire x1="-1.473" y1="0.983" x2="1.473" y2="0.983" width="0.0508" layer="39"/>
<wire x1="1.473" y1="0.983" x2="1.473" y2="-0.983" width="0.0508" layer="39"/>
<wire x1="1.473" y1="-0.983" x2="-1.473" y2="-0.983" width="0.0508" layer="39"/>
<wire x1="-1.473" y1="-0.983" x2="-1.473" y2="0.983" width="0.0508" layer="39"/>
<wire x1="-0.356" y1="0.432" x2="0.356" y2="0.432" width="0.1016" layer="51"/>
<wire x1="-0.356" y1="-0.419" x2="0.356" y2="-0.419" width="0.1016" layer="51"/>
<smd name="1" x="-0.85" y="0" dx="1.1" dy="1" layer="1"/>
<smd name="2" x="0.85" y="0" dx="1.1" dy="1" layer="1"/>
<text x="-0.889" y="0.762" size="0.4064" layer="25" font="vector">&gt;NAME</text>
<text x="-1.016" y="-1.143" size="0.4064" layer="27" font="vector">&gt;VALUE</text>
<rectangle x1="-0.8382" y1="-0.4699" x2="-0.3381" y2="0.4801" layer="51"/>
<rectangle x1="0.3302" y1="-0.4699" x2="0.8303" y2="0.4801" layer="51"/>
<rectangle x1="-0.1999" y1="-0.3" x2="0.1999" y2="0.3" layer="35"/>
<rectangle x1="-0.2286" y1="-0.381" x2="0.2286" y2="0.381" layer="21"/>
</package>
<package name="0603-CAP">
<wire x1="-1.473" y1="0.983" x2="1.473" y2="0.983" width="0.0508" layer="39"/>
<wire x1="1.473" y1="0.983" x2="1.473" y2="-0.983" width="0.0508" layer="39"/>
<wire x1="1.473" y1="-0.983" x2="-1.473" y2="-0.983" width="0.0508" layer="39"/>
<wire x1="-1.473" y1="-0.983" x2="-1.473" y2="0.983" width="0.0508" layer="39"/>
<wire x1="-0.356" y1="0.432" x2="0.356" y2="0.432" width="0.1016" layer="51"/>
<wire x1="-0.356" y1="-0.419" x2="0.356" y2="-0.419" width="0.1016" layer="51"/>
<wire x1="0" y1="0.0305" x2="0" y2="-0.0305" width="0.5588" layer="21"/>
<smd name="1" x="-0.85" y="0" dx="1.1" dy="1" layer="1"/>
<smd name="2" x="0.85" y="0" dx="1.1" dy="1" layer="1"/>
<text x="-0.889" y="0.762" size="0.4064" layer="25" font="vector">&gt;NAME</text>
<text x="-1.016" y="-1.143" size="0.4064" layer="27" font="vector">&gt;VALUE</text>
<rectangle x1="-0.8382" y1="-0.4699" x2="-0.3381" y2="0.4801" layer="51"/>
<rectangle x1="0.3302" y1="-0.4699" x2="0.8303" y2="0.4801" layer="51"/>
<rectangle x1="-0.1999" y1="-0.3" x2="0.1999" y2="0.3" layer="35"/>
</package>
</packages>
</library>
<library name="myLib">
<packages>
<package name="MOLEX_5034800800">
<wire x1="-2.8" y1="-2" x2="2.9" y2="-2" width="0.127" layer="21"/>
<wire x1="2.9" y1="-2" x2="2.9" y2="1.7" width="0.127" layer="21"/>
<wire x1="2.9" y1="1.7" x2="-2.8" y2="1.7" width="0.127" layer="21"/>
<wire x1="-2.8" y1="1.7" x2="-2.8" y2="-2" width="0.127" layer="21"/>
<smd name="P$1" x="-1.7" y="1.3" dx="0.3" dy="0.7" layer="1"/>
<smd name="P$2" x="-1.2" y="1.3" dx="0.3" dy="0.7" layer="1"/>
<smd name="P$3" x="-0.7" y="1.3" dx="0.3" dy="0.7" layer="1"/>
<smd name="P$4" x="-0.2" y="1.3" dx="0.3" dy="0.7" layer="1"/>
<smd name="P$5" x="0.3" y="1.3" dx="0.3" dy="0.7" layer="1"/>
<smd name="P$6" x="0.8" y="1.3" dx="0.3" dy="0.7" layer="1"/>
<smd name="P$7" x="1.3" y="1.3" dx="0.3" dy="0.7" layer="1"/>
<smd name="P$8" x="1.8" y="1.3" dx="0.3" dy="0.7" layer="1"/>
<smd name="P$9" x="-2.5" y="-1.4" dx="0.3" dy="1" layer="1"/>
<smd name="P$10" x="2.6" y="-1.4" dx="0.3" dy="1" layer="1"/>
</package>
</packages>
</library>
<library name="SparkFun-RF">
<description>&lt;h3&gt;SparkFun Electronics' preferred foot prints&lt;/h3&gt;
In this library you'll find things that send or receive RF- GPS, cellular modules, Bluetooth, WiFi, etc.&lt;br&gt;&lt;br&gt;
We've spent an enormous amount of time creating and checking these footprints and parts, but it is the end user's responsibility to ensure correctness and suitablity for a given componet or application. If you enjoy using this library, please buy one of our products at www.sparkfun.com.
&lt;br&gt;&lt;br&gt;
&lt;b&gt;Licensing:&lt;/b&gt; Creative Commons ShareAlike 4.0 International - https://creativecommons.org/licenses/by-sa/4.0/ 
&lt;br&gt;&lt;br&gt;
You are welcome to use this library for commercial purposes. For attribution, we ask that when you begin to sell your device using our footprint, you email us with a link to the product being sold. We want bragging rights that we helped (in a very small part) to create your 8th world wonder. We would like the opportunity to feature your device on our homepage.</description>
<packages>
<package name="RN41">
<wire x1="9.4" y1="6.6" x2="-16.4" y2="6.6" width="0.127" layer="51"/>
<wire x1="-16.4" y1="6.6" x2="-16.4" y2="-6.6" width="0.127" layer="51"/>
<wire x1="-16.4" y1="-6.6" x2="9.4" y2="-6.6" width="0.127" layer="51"/>
<wire x1="9.4" y1="-6.6" x2="9.4" y2="6.6" width="0.127" layer="51"/>
<wire x1="-8.5" y1="6.6" x2="-10.2" y2="6.6" width="0.2032" layer="21"/>
<wire x1="-8.5" y1="-6.6" x2="-10.2" y2="-6.6" width="0.2032" layer="21"/>
<wire x1="9.4" y1="6.6" x2="9.4" y2="5.6" width="0.2032" layer="21"/>
<wire x1="9.4" y1="6.6" x2="8.4" y2="6.6" width="0.2032" layer="21"/>
<wire x1="9.4" y1="-6.6" x2="9.4" y2="-5.6" width="0.2032" layer="21"/>
<wire x1="9.4" y1="-6.6" x2="8.4" y2="-6.6" width="0.2032" layer="21"/>
<wire x1="-16.4" y1="-6.6" x2="-16.4" y2="-5.6" width="0.2032" layer="21"/>
<wire x1="-16.4" y1="-6.6" x2="-15.4" y2="-6.6" width="0.2032" layer="21"/>
<wire x1="-16.4" y1="6.6" x2="-16.4" y2="5.6" width="0.2032" layer="21"/>
<wire x1="-16.4" y1="6.6" x2="-15.4" y2="6.6" width="0.2032" layer="21"/>
<smd name="1" x="-6.6" y="-6.6" dx="0.8" dy="1.6" layer="1" rot="R180"/>
<smd name="2" x="-5.4" y="-6.6" dx="0.8" dy="1.6" layer="1" rot="R180"/>
<smd name="3" x="-4.2" y="-6.6" dx="0.8" dy="1.6" layer="1" rot="R180"/>
<smd name="4" x="-3" y="-6.6" dx="0.8" dy="1.6" layer="1" rot="R180"/>
<smd name="5" x="-1.8" y="-6.6" dx="0.8" dy="1.6" layer="1" rot="R180"/>
<smd name="6" x="-0.6" y="-6.6" dx="0.8" dy="1.6" layer="1" rot="R180"/>
<smd name="7" x="0.6" y="-6.6" dx="0.8" dy="1.6" layer="1" rot="R180"/>
<smd name="8" x="1.8" y="-6.6" dx="0.8" dy="1.6" layer="1" rot="R180"/>
<smd name="9" x="3" y="-6.6" dx="0.8" dy="1.6" layer="1" rot="R180"/>
<smd name="10" x="4.2" y="-6.6" dx="0.8" dy="1.6" layer="1" rot="R180"/>
<smd name="11" x="5.4" y="-6.6" dx="0.8" dy="1.6" layer="1" rot="R180"/>
<smd name="12" x="6.6" y="-6.6" dx="0.8" dy="1.6" layer="1" rot="R180"/>
<smd name="13" x="6.6" y="6.6" dx="0.8" dy="1.6" layer="1"/>
<smd name="14" x="5.4" y="6.6" dx="0.8" dy="1.6" layer="1"/>
<smd name="15" x="4.2" y="6.6" dx="0.8" dy="1.6" layer="1"/>
<smd name="16" x="3" y="6.6" dx="0.8" dy="1.6" layer="1"/>
<smd name="17" x="1.8" y="6.6" dx="0.8" dy="1.6" layer="1"/>
<smd name="18" x="0.6" y="6.6" dx="0.8" dy="1.6" layer="1"/>
<smd name="19" x="-0.6" y="6.6" dx="0.8" dy="1.6" layer="1"/>
<smd name="20" x="-1.8" y="6.6" dx="0.8" dy="1.6" layer="1"/>
<smd name="21" x="-3" y="6.6" dx="0.8" dy="1.6" layer="1"/>
<smd name="22" x="-4.2" y="6.6" dx="0.8" dy="1.6" layer="1"/>
<smd name="23" x="-5.4" y="6.6" dx="0.8" dy="1.6" layer="1"/>
<smd name="24" x="-6.6" y="6.6" dx="0.8" dy="1.6" layer="1"/>
<smd name="28" x="9.4" y="3.1" dx="0.8" dy="1.6" layer="1" rot="R90"/>
<smd name="29" x="9.4" y="-3.1" dx="0.8" dy="1.6" layer="1" rot="R90"/>
<smd name="35" x="9.4" y="-4.1222" dx="0.8" dy="1.6" layer="1" rot="R90"/>
<smd name="34" x="9.4" y="-1.9" dx="0.8" dy="1.6" layer="1" rot="R90"/>
<smd name="33" x="9.4" y="-0.7" dx="0.8" dy="1.6" layer="1" rot="R90"/>
<smd name="32" x="9.4" y="0.7" dx="0.8" dy="1.6" layer="1" rot="R90"/>
<smd name="31" x="9.4" y="1.9" dx="0.8" dy="1.6" layer="1" rot="R90"/>
<smd name="30" x="9.4" y="4.1222" dx="0.8" dy="1.6" layer="1" rot="R90"/>
</package>
</packages>
</library>
<library name="TI_MSP430_v16">
<packages>
<package name="PZ100">
<description>*** TI: PZ *** JEDEC: S-PQFP-G100 *** 100 PINS ***</description>
<wire x1="-7.005" y1="-7" x2="6.995" y2="-7" width="0.127" layer="21"/>
<wire x1="6.995" y1="-7" x2="6.995" y2="7" width="0.127" layer="21"/>
<wire x1="6.995" y1="7" x2="-7.005" y2="7" width="0.127" layer="21"/>
<wire x1="-7.005" y1="7" x2="-7.005" y2="-7" width="0.127" layer="21"/>
<circle x="-6.37" y="6.398" radius="0.284" width="0.127" layer="21"/>
<smd name="1" x="-7.8" y="6" dx="0.3" dy="1.4" layer="1" rot="R90"/>
<smd name="2" x="-7.8" y="5.5" dx="0.3" dy="1.4" layer="1" rot="R90"/>
<smd name="3" x="-7.8" y="5" dx="0.3" dy="1.4" layer="1" rot="R90"/>
<smd name="4" x="-7.8" y="4.5" dx="0.3" dy="1.4" layer="1" rot="R90"/>
<smd name="5" x="-7.8" y="4" dx="0.3" dy="1.4" layer="1" rot="R90"/>
<smd name="6" x="-7.8" y="3.5" dx="0.3" dy="1.4" layer="1" rot="R90"/>
<smd name="7" x="-7.8" y="3" dx="0.3" dy="1.4" layer="1" rot="R90"/>
<smd name="8" x="-7.8" y="2.5" dx="0.3" dy="1.4" layer="1" rot="R90"/>
<smd name="9" x="-7.8" y="2" dx="0.3" dy="1.4" layer="1" rot="R90"/>
<smd name="10" x="-7.8" y="1.5" dx="0.3" dy="1.4" layer="1" rot="R90"/>
<smd name="11" x="-7.8" y="1" dx="0.3" dy="1.4" layer="1" rot="R90"/>
<smd name="12" x="-7.8" y="0.5" dx="0.3" dy="1.4" layer="1" rot="R90"/>
<smd name="13" x="-7.8" y="0" dx="0.3" dy="1.4" layer="1" rot="R90"/>
<smd name="14" x="-7.8" y="-0.5" dx="0.3" dy="1.4" layer="1" rot="R90"/>
<smd name="15" x="-7.8" y="-1" dx="0.3" dy="1.4" layer="1" rot="R90"/>
<smd name="16" x="-7.8" y="-1.5" dx="0.3" dy="1.4" layer="1" rot="R90"/>
<smd name="17" x="-7.8" y="-2" dx="0.3" dy="1.4" layer="1" rot="R90"/>
<smd name="18" x="-7.8" y="-2.5" dx="0.3" dy="1.4" layer="1" rot="R90"/>
<smd name="19" x="-7.8" y="-3" dx="0.3" dy="1.4" layer="1" rot="R90"/>
<smd name="20" x="-7.8" y="-3.5" dx="0.3" dy="1.4" layer="1" rot="R90"/>
<smd name="21" x="-7.8" y="-4" dx="0.3" dy="1.4" layer="1" rot="R90"/>
<smd name="22" x="-7.8" y="-4.5" dx="0.3" dy="1.4" layer="1" rot="R90"/>
<smd name="23" x="-7.8" y="-5" dx="0.3" dy="1.4" layer="1" rot="R90"/>
<smd name="24" x="-7.8" y="-5.5" dx="0.3" dy="1.4" layer="1" rot="R90"/>
<smd name="25" x="-7.8" y="-6" dx="0.3" dy="1.4" layer="1" rot="R90"/>
<smd name="26" x="-6" y="-7.8" dx="0.3" dy="1.4" layer="1" rot="R180"/>
<smd name="27" x="-5.5" y="-7.8" dx="0.3" dy="1.4" layer="1" rot="R180"/>
<smd name="28" x="-5" y="-7.8" dx="0.3" dy="1.4" layer="1" rot="R180"/>
<smd name="29" x="-4.5" y="-7.8" dx="0.3" dy="1.4" layer="1" rot="R180"/>
<smd name="30" x="-4" y="-7.8" dx="0.3" dy="1.4" layer="1" rot="R180"/>
<smd name="31" x="-3.5" y="-7.8" dx="0.3" dy="1.4" layer="1" rot="R180"/>
<smd name="32" x="-3" y="-7.8" dx="0.3" dy="1.4" layer="1" rot="R180"/>
<smd name="33" x="-2.5" y="-7.8" dx="0.3" dy="1.4" layer="1" rot="R180"/>
<smd name="34" x="-2" y="-7.8" dx="0.3" dy="1.4" layer="1" rot="R180"/>
<smd name="35" x="-1.5" y="-7.8" dx="0.3" dy="1.4" layer="1" rot="R180"/>
<smd name="36" x="-1" y="-7.8" dx="0.3" dy="1.4" layer="1" rot="R180"/>
<smd name="37" x="-0.5" y="-7.8" dx="0.3" dy="1.4" layer="1" rot="R180"/>
<smd name="38" x="0" y="-7.8" dx="0.3" dy="1.4" layer="1" rot="R180"/>
<smd name="39" x="0.5" y="-7.8" dx="0.3" dy="1.4" layer="1" rot="R180"/>
<smd name="40" x="1" y="-7.8" dx="0.3" dy="1.4" layer="1" rot="R180"/>
<smd name="41" x="1.5" y="-7.8" dx="0.3" dy="1.4" layer="1" rot="R180"/>
<smd name="42" x="2" y="-7.8" dx="0.3" dy="1.4" layer="1" rot="R180"/>
<smd name="43" x="2.5" y="-7.8" dx="0.3" dy="1.4" layer="1" rot="R180"/>
<smd name="44" x="3" y="-7.8" dx="0.3" dy="1.4" layer="1" rot="R180"/>
<smd name="45" x="3.5" y="-7.8" dx="0.3" dy="1.4" layer="1" rot="R180"/>
<smd name="46" x="4" y="-7.8" dx="0.3" dy="1.4" layer="1" rot="R180"/>
<smd name="47" x="4.5" y="-7.8" dx="0.3" dy="1.4" layer="1" rot="R180"/>
<smd name="48" x="5" y="-7.8" dx="0.3" dy="1.4" layer="1" rot="R180"/>
<smd name="49" x="5.5" y="-7.8" dx="0.3" dy="1.4" layer="1" rot="R180"/>
<smd name="50" x="6" y="-7.8" dx="0.3" dy="1.4" layer="1" rot="R180"/>
<smd name="100" x="-6" y="7.8" dx="0.3" dy="1.4" layer="1" rot="R180"/>
<smd name="99" x="-5.5" y="7.8" dx="0.3" dy="1.4" layer="1" rot="R180"/>
<smd name="98" x="-5" y="7.8" dx="0.3" dy="1.4" layer="1" rot="R180"/>
<smd name="97" x="-4.5" y="7.8" dx="0.3" dy="1.4" layer="1" rot="R180"/>
<smd name="96" x="-4" y="7.8" dx="0.3" dy="1.4" layer="1" rot="R180"/>
<smd name="95" x="-3.5" y="7.8" dx="0.3" dy="1.4" layer="1" rot="R180"/>
<smd name="94" x="-3" y="7.8" dx="0.3" dy="1.4" layer="1" rot="R180"/>
<smd name="93" x="-2.5" y="7.8" dx="0.3" dy="1.4" layer="1" rot="R180"/>
<smd name="92" x="-2" y="7.8" dx="0.3" dy="1.4" layer="1" rot="R180"/>
<smd name="91" x="-1.5" y="7.8" dx="0.3" dy="1.4" layer="1" rot="R180"/>
<smd name="90" x="-1" y="7.8" dx="0.3" dy="1.4" layer="1" rot="R180"/>
<smd name="89" x="-0.5" y="7.8" dx="0.3" dy="1.4" layer="1" rot="R180"/>
<smd name="88" x="0" y="7.8" dx="0.3" dy="1.4" layer="1" rot="R180"/>
<smd name="87" x="0.5" y="7.8" dx="0.3" dy="1.4" layer="1" rot="R180"/>
<smd name="86" x="1" y="7.8" dx="0.3" dy="1.4" layer="1" rot="R180"/>
<smd name="85" x="1.5" y="7.8" dx="0.3" dy="1.4" layer="1" rot="R180"/>
<smd name="84" x="2" y="7.8" dx="0.3" dy="1.4" layer="1" rot="R180"/>
<smd name="83" x="2.5" y="7.8" dx="0.3" dy="1.4" layer="1" rot="R180"/>
<smd name="82" x="3" y="7.8" dx="0.3" dy="1.4" layer="1" rot="R180"/>
<smd name="81" x="3.5" y="7.8" dx="0.3" dy="1.4" layer="1" rot="R180"/>
<smd name="80" x="4" y="7.8" dx="0.3" dy="1.4" layer="1" rot="R180"/>
<smd name="79" x="4.5" y="7.8" dx="0.3" dy="1.4" layer="1" rot="R180"/>
<smd name="78" x="5" y="7.8" dx="0.3" dy="1.4" layer="1" rot="R180"/>
<smd name="77" x="5.5" y="7.8" dx="0.3" dy="1.4" layer="1" rot="R180"/>
<smd name="76" x="6" y="7.8" dx="0.3" dy="1.4" layer="1" rot="R180"/>
<smd name="75" x="7.8" y="6" dx="0.3" dy="1.4" layer="1" rot="R90"/>
<smd name="74" x="7.8" y="5.5" dx="0.3" dy="1.4" layer="1" rot="R90"/>
<smd name="73" x="7.8" y="5" dx="0.3" dy="1.4" layer="1" rot="R90"/>
<smd name="72" x="7.8" y="4.5" dx="0.3" dy="1.4" layer="1" rot="R90"/>
<smd name="71" x="7.8" y="4" dx="0.3" dy="1.4" layer="1" rot="R90"/>
<smd name="70" x="7.8" y="3.5" dx="0.3" dy="1.4" layer="1" rot="R90"/>
<smd name="69" x="7.8" y="3" dx="0.3" dy="1.4" layer="1" rot="R90"/>
<smd name="68" x="7.8" y="2.5" dx="0.3" dy="1.4" layer="1" rot="R90"/>
<smd name="67" x="7.8" y="2" dx="0.3" dy="1.4" layer="1" rot="R90"/>
<smd name="66" x="7.8" y="1.5" dx="0.3" dy="1.4" layer="1" rot="R90"/>
<smd name="65" x="7.8" y="1" dx="0.3" dy="1.4" layer="1" rot="R90"/>
<smd name="64" x="7.8" y="0.5" dx="0.3" dy="1.4" layer="1" rot="R90"/>
<smd name="63" x="7.8" y="0" dx="0.3" dy="1.4" layer="1" rot="R90"/>
<smd name="62" x="7.8" y="-0.5" dx="0.3" dy="1.4" layer="1" rot="R90"/>
<smd name="61" x="7.8" y="-1" dx="0.3" dy="1.4" layer="1" rot="R90"/>
<smd name="60" x="7.8" y="-1.5" dx="0.3" dy="1.4" layer="1" rot="R90"/>
<smd name="59" x="7.8" y="-2" dx="0.3" dy="1.4" layer="1" rot="R90"/>
<smd name="58" x="7.8" y="-2.5" dx="0.3" dy="1.4" layer="1" rot="R90"/>
<smd name="57" x="7.8" y="-3" dx="0.3" dy="1.4" layer="1" rot="R90"/>
<smd name="56" x="7.8" y="-3.5" dx="0.3" dy="1.4" layer="1" rot="R90"/>
<smd name="55" x="7.8" y="-4" dx="0.3" dy="1.4" layer="1" rot="R90"/>
<smd name="54" x="7.8" y="-4.5" dx="0.3" dy="1.4" layer="1" rot="R90"/>
<smd name="53" x="7.8" y="-5" dx="0.3" dy="1.4" layer="1" rot="R90"/>
<smd name="52" x="7.8" y="-5.5" dx="0.3" dy="1.4" layer="1" rot="R90"/>
<smd name="51" x="7.8" y="-6" dx="0.3" dy="1.4" layer="1" rot="R90"/>
<text x="-3.195" y="3.16" size="1.27" layer="25">&gt;NAME</text>
<text x="-3.195" y="-3.19" size="1.27" layer="27">&gt;VALUE</text>
<rectangle x1="-7.7" y1="5.48" x2="-7.42" y2="6.52" layer="27" rot="R270"/>
<rectangle x1="-7.7" y1="4.98" x2="-7.42" y2="6.02" layer="27" rot="R270"/>
<rectangle x1="-7.7" y1="4.48" x2="-7.42" y2="5.52" layer="27" rot="R270"/>
<rectangle x1="-7.7" y1="3.98" x2="-7.42" y2="5.02" layer="27" rot="R270"/>
<rectangle x1="-7.7" y1="3.48" x2="-7.42" y2="4.52" layer="27" rot="R270"/>
<rectangle x1="-7.7" y1="2.98" x2="-7.42" y2="4.02" layer="27" rot="R270"/>
<rectangle x1="-7.7" y1="2.48" x2="-7.42" y2="3.52" layer="27" rot="R270"/>
<rectangle x1="-7.7" y1="1.98" x2="-7.42" y2="3.02" layer="27" rot="R270"/>
<rectangle x1="-7.7" y1="1.48" x2="-7.42" y2="2.52" layer="27" rot="R270"/>
<rectangle x1="-7.7" y1="0.98" x2="-7.42" y2="2.02" layer="27" rot="R270"/>
<rectangle x1="-7.7" y1="0.48" x2="-7.42" y2="1.52" layer="27" rot="R270"/>
<rectangle x1="-7.7" y1="-0.02" x2="-7.42" y2="1.02" layer="27" rot="R270"/>
<rectangle x1="-7.7" y1="-0.52" x2="-7.42" y2="0.52" layer="27" rot="R270"/>
<rectangle x1="-7.7" y1="-1.02" x2="-7.42" y2="0.02" layer="27" rot="R270"/>
<rectangle x1="-7.7" y1="-1.52" x2="-7.42" y2="-0.48" layer="27" rot="R270"/>
<rectangle x1="-7.7" y1="-2.02" x2="-7.42" y2="-0.98" layer="27" rot="R270"/>
<rectangle x1="-7.7" y1="-2.52" x2="-7.42" y2="-1.48" layer="27" rot="R270"/>
<rectangle x1="-7.7" y1="-3.02" x2="-7.42" y2="-1.98" layer="27" rot="R270"/>
<rectangle x1="-7.7" y1="-3.52" x2="-7.42" y2="-2.48" layer="27" rot="R270"/>
<rectangle x1="-7.7" y1="-4.02" x2="-7.42" y2="-2.98" layer="27" rot="R270"/>
<rectangle x1="-7.7" y1="-4.52" x2="-7.42" y2="-3.48" layer="27" rot="R270"/>
<rectangle x1="-7.7" y1="-5.02" x2="-7.42" y2="-3.98" layer="27" rot="R270"/>
<rectangle x1="-7.7" y1="-5.52" x2="-7.42" y2="-4.48" layer="27" rot="R270"/>
<rectangle x1="-7.7" y1="-6.02" x2="-7.42" y2="-4.98" layer="27" rot="R270"/>
<rectangle x1="-7.7" y1="-6.52" x2="-7.42" y2="-5.48" layer="27" rot="R270"/>
<rectangle x1="-6.14" y1="-8.08" x2="-5.86" y2="-7.04" layer="27"/>
<rectangle x1="-5.64" y1="-8.08" x2="-5.36" y2="-7.04" layer="27"/>
<rectangle x1="-5.14" y1="-8.08" x2="-4.86" y2="-7.04" layer="27"/>
<rectangle x1="-4.64" y1="-8.08" x2="-4.36" y2="-7.04" layer="27"/>
<rectangle x1="-4.14" y1="-8.08" x2="-3.86" y2="-7.04" layer="27"/>
<rectangle x1="-3.64" y1="-8.08" x2="-3.36" y2="-7.04" layer="27"/>
<rectangle x1="-3.14" y1="-8.08" x2="-2.86" y2="-7.04" layer="27"/>
<rectangle x1="-2.64" y1="-8.08" x2="-2.36" y2="-7.04" layer="27"/>
<rectangle x1="-2.14" y1="-8.08" x2="-1.86" y2="-7.04" layer="27"/>
<rectangle x1="-1.64" y1="-8.08" x2="-1.36" y2="-7.04" layer="27"/>
<rectangle x1="-1.14" y1="-8.08" x2="-0.86" y2="-7.04" layer="27"/>
<rectangle x1="-0.64" y1="-8.08" x2="-0.36" y2="-7.04" layer="27"/>
<rectangle x1="-0.14" y1="-8.08" x2="0.14" y2="-7.04" layer="27"/>
<rectangle x1="0.36" y1="-8.08" x2="0.64" y2="-7.04" layer="27"/>
<rectangle x1="0.86" y1="-8.08" x2="1.14" y2="-7.04" layer="27"/>
<rectangle x1="1.36" y1="-8.08" x2="1.64" y2="-7.04" layer="27"/>
<rectangle x1="1.86" y1="-8.08" x2="2.14" y2="-7.04" layer="27"/>
<rectangle x1="2.36" y1="-8.08" x2="2.64" y2="-7.04" layer="27"/>
<rectangle x1="2.86" y1="-8.08" x2="3.14" y2="-7.04" layer="27"/>
<rectangle x1="3.36" y1="-8.08" x2="3.64" y2="-7.04" layer="27"/>
<rectangle x1="3.86" y1="-8.08" x2="4.14" y2="-7.04" layer="27"/>
<rectangle x1="4.36" y1="-8.08" x2="4.64" y2="-7.04" layer="27"/>
<rectangle x1="4.86" y1="-8.08" x2="5.14" y2="-7.04" layer="27"/>
<rectangle x1="5.36" y1="-8.08" x2="5.64" y2="-7.04" layer="27"/>
<rectangle x1="5.86" y1="-8.08" x2="6.14" y2="-7.04" layer="27"/>
<rectangle x1="7.41" y1="5.48" x2="7.69" y2="6.52" layer="27" rot="R270"/>
<rectangle x1="7.41" y1="4.98" x2="7.69" y2="6.02" layer="27" rot="R270"/>
<rectangle x1="7.41" y1="4.48" x2="7.69" y2="5.52" layer="27" rot="R270"/>
<rectangle x1="7.41" y1="3.98" x2="7.69" y2="5.02" layer="27" rot="R270"/>
<rectangle x1="7.41" y1="3.48" x2="7.69" y2="4.52" layer="27" rot="R270"/>
<rectangle x1="7.41" y1="2.98" x2="7.69" y2="4.02" layer="27" rot="R270"/>
<rectangle x1="7.41" y1="2.48" x2="7.69" y2="3.52" layer="27" rot="R270"/>
<rectangle x1="7.41" y1="1.98" x2="7.69" y2="3.02" layer="27" rot="R270"/>
<rectangle x1="7.41" y1="1.48" x2="7.69" y2="2.52" layer="27" rot="R270"/>
<rectangle x1="7.41" y1="0.98" x2="7.69" y2="2.02" layer="27" rot="R270"/>
<rectangle x1="7.41" y1="0.48" x2="7.69" y2="1.52" layer="27" rot="R270"/>
<rectangle x1="7.41" y1="-0.02" x2="7.69" y2="1.02" layer="27" rot="R270"/>
<rectangle x1="7.41" y1="-0.52" x2="7.69" y2="0.52" layer="27" rot="R270"/>
<rectangle x1="7.41" y1="-1.02" x2="7.69" y2="0.02" layer="27" rot="R270"/>
<rectangle x1="7.41" y1="-1.52" x2="7.69" y2="-0.48" layer="27" rot="R270"/>
<rectangle x1="7.41" y1="-2.02" x2="7.69" y2="-0.98" layer="27" rot="R270"/>
<rectangle x1="7.41" y1="-2.52" x2="7.69" y2="-1.48" layer="27" rot="R270"/>
<rectangle x1="7.41" y1="-3.02" x2="7.69" y2="-1.98" layer="27" rot="R270"/>
<rectangle x1="7.41" y1="-3.52" x2="7.69" y2="-2.48" layer="27" rot="R270"/>
<rectangle x1="7.41" y1="-4.02" x2="7.69" y2="-2.98" layer="27" rot="R270"/>
<rectangle x1="7.41" y1="-4.52" x2="7.69" y2="-3.48" layer="27" rot="R270"/>
<rectangle x1="7.41" y1="-5.02" x2="7.69" y2="-3.98" layer="27" rot="R270"/>
<rectangle x1="7.41" y1="-5.52" x2="7.69" y2="-4.48" layer="27" rot="R270"/>
<rectangle x1="7.41" y1="-6.02" x2="7.69" y2="-4.98" layer="27" rot="R270"/>
<rectangle x1="7.41" y1="-6.52" x2="7.69" y2="-5.48" layer="27" rot="R270"/>
<rectangle x1="-6.14" y1="7.03" x2="-5.86" y2="8.07" layer="27"/>
<rectangle x1="-5.64" y1="7.03" x2="-5.36" y2="8.07" layer="27"/>
<rectangle x1="-5.14" y1="7.03" x2="-4.86" y2="8.07" layer="27"/>
<rectangle x1="-4.64" y1="7.03" x2="-4.36" y2="8.07" layer="27"/>
<rectangle x1="-4.14" y1="7.03" x2="-3.86" y2="8.07" layer="27"/>
<rectangle x1="-3.64" y1="7.03" x2="-3.36" y2="8.07" layer="27"/>
<rectangle x1="-3.14" y1="7.03" x2="-2.86" y2="8.07" layer="27"/>
<rectangle x1="-2.64" y1="7.03" x2="-2.36" y2="8.07" layer="27"/>
<rectangle x1="-2.14" y1="7.03" x2="-1.86" y2="8.07" layer="27"/>
<rectangle x1="-1.64" y1="7.03" x2="-1.36" y2="8.07" layer="27"/>
<rectangle x1="-1.14" y1="7.03" x2="-0.86" y2="8.07" layer="27"/>
<rectangle x1="-0.64" y1="7.03" x2="-0.36" y2="8.07" layer="27"/>
<rectangle x1="-0.14" y1="7.03" x2="0.14" y2="8.07" layer="27"/>
<rectangle x1="0.36" y1="7.03" x2="0.64" y2="8.07" layer="27"/>
<rectangle x1="0.86" y1="7.03" x2="1.14" y2="8.07" layer="27"/>
<rectangle x1="1.36" y1="7.03" x2="1.64" y2="8.07" layer="27"/>
<rectangle x1="1.86" y1="7.03" x2="2.14" y2="8.07" layer="27"/>
<rectangle x1="2.36" y1="7.03" x2="2.64" y2="8.07" layer="27"/>
<rectangle x1="2.86" y1="7.03" x2="3.14" y2="8.07" layer="27"/>
<rectangle x1="3.36" y1="7.03" x2="3.64" y2="8.07" layer="27"/>
<rectangle x1="3.86" y1="7.03" x2="4.14" y2="8.07" layer="27"/>
<rectangle x1="4.36" y1="7.03" x2="4.64" y2="8.07" layer="27"/>
<rectangle x1="4.86" y1="7.03" x2="5.14" y2="8.07" layer="27"/>
<rectangle x1="5.36" y1="7.03" x2="5.64" y2="8.07" layer="27"/>
<rectangle x1="5.86" y1="7.03" x2="6.14" y2="8.07" layer="27"/>
</package>
</packages>
</library>
<library name="SparkFun-Connectors">
<description>&lt;h3&gt;SparkFun Electronics' preferred foot prints&lt;/h3&gt;
In this library you'll find connectors and sockets- basically anything that can be plugged into or onto.&lt;br&gt;&lt;br&gt;
We've spent an enormous amount of time creating and checking these footprints and parts, but it is the end user's responsibility to ensure correctness and suitablity for a given componet or application. If you enjoy using this library, please buy one of our products at www.sparkfun.com.
&lt;br&gt;&lt;br&gt;
&lt;b&gt;Licensing:&lt;/b&gt; Creative Commons ShareAlike 4.0 International - https://creativecommons.org/licenses/by-sa/4.0/ 
&lt;br&gt;&lt;br&gt;
You are welcome to use this library for commercial purposes. For attribution, we ask that when you begin to sell your device using our footprint, you email us with a link to the product being sold. We want bragging rights that we helped (in a very small part) to create your 8th world wonder. We would like the opportunity to feature your device on our homepage.</description>
<packages>
<package name="USB-MICROB">
<description>Micro USB Package</description>
<wire x1="-3.4" y1="-2.15" x2="-3" y2="-2.15" width="0.127" layer="51"/>
<wire x1="3" y1="-2.15" x2="3.4" y2="-2.15" width="0.127" layer="51"/>
<wire x1="-3.4" y1="-2.15" x2="-3.4" y2="-1.45" width="0.127" layer="51"/>
<wire x1="-3.4" y1="-1.45" x2="-3.4" y2="2.85" width="0.127" layer="51"/>
<wire x1="3.4" y1="2.85" x2="2.2" y2="2.85" width="0.127" layer="51"/>
<wire x1="3.4" y1="2.85" x2="3.4" y2="-1.45" width="0.127" layer="51"/>
<wire x1="3.4" y1="-1.45" x2="3.4" y2="-2.15" width="0.127" layer="51"/>
<wire x1="-3.4" y1="-1.45" x2="3.4" y2="-1.45" width="0.127" layer="51"/>
<wire x1="-3.4" y1="1.25" x2="-3.4" y2="2.85" width="0.2032" layer="21"/>
<wire x1="-3.4" y1="2.85" x2="-2.2" y2="2.85" width="0.2032" layer="21"/>
<wire x1="3.4" y1="2.85" x2="2.2" y2="2.85" width="0.2032" layer="21"/>
<wire x1="3.4" y1="1.25" x2="3.4" y2="2.85" width="0.2032" layer="21"/>
<wire x1="-3.4" y1="-1.45" x2="3.4" y2="-1.45" width="0.2032" layer="21"/>
<wire x1="-2.2" y1="1.45" x2="2.2" y2="1.45" width="0.127" layer="51"/>
<wire x1="2.2" y1="1.45" x2="2.2" y2="2.85" width="0.127" layer="51"/>
<wire x1="-2.2" y1="1.45" x2="-2.2" y2="2.85" width="0.127" layer="51"/>
<wire x1="-3.4" y1="2.85" x2="-2.2" y2="2.85" width="0.127" layer="51"/>
<wire x1="-2.2" y1="2.85" x2="-2.2" y2="1.45" width="0.2032" layer="21"/>
<wire x1="-2.2" y1="1.45" x2="2.2" y2="1.45" width="0.2032" layer="21"/>
<wire x1="2.2" y1="1.45" x2="2.2" y2="2.85" width="0.2032" layer="21"/>
<wire x1="-3.4" y1="-2.15" x2="-4" y2="-2.75" width="0.2032" layer="51"/>
<wire x1="3.4" y1="-2.15" x2="4" y2="-2.75" width="0.2032" layer="51"/>
<wire x1="-3" y1="-2.15" x2="-3" y2="-2.55" width="0.127" layer="51"/>
<wire x1="-2.8" y1="-2.8" x2="2.75" y2="-2.8" width="0.127" layer="51"/>
<wire x1="3" y1="-2.6" x2="3" y2="-2.15" width="0.127" layer="51"/>
<wire x1="-3" y1="-2.55" x2="-2.8" y2="-2.8" width="0.127" layer="51" curve="84.547378"/>
<wire x1="2.75" y1="-2.8" x2="3" y2="-2.6" width="0.127" layer="51" curve="84.547378"/>
<smd name="VBUS" x="-1.3" y="2.65" dx="1.4" dy="0.35" layer="1" rot="R90"/>
<smd name="GND" x="1.3" y="2.65" dx="1.4" dy="0.35" layer="1" rot="R90"/>
<smd name="D-" x="-0.65" y="2.65" dx="1.4" dy="0.35" layer="1" rot="R90"/>
<smd name="D+" x="0" y="2.65" dx="1.4" dy="0.35" layer="1" rot="R90"/>
<smd name="ID" x="0.65" y="2.65" dx="1.4" dy="0.35" layer="1" rot="R90"/>
<smd name="MT1" x="-4" y="0" dx="1.8" dy="1.9" layer="1"/>
<smd name="MT2" x="4" y="0" dx="1.8" dy="1.9" layer="1"/>
<text x="-1.6" y="-0.35" size="0.762" layer="25">&gt;NAME</text>
<text x="-1.905" y="-3.175" size="0.762" layer="27">&gt;VALUE</text>
<smd name="P$1" x="-1.27" y="0" dx="1.9" dy="1.9" layer="1"/>
<smd name="P$2" x="1.27" y="0" dx="1.9" dy="1.9" layer="1"/>
</package>
</packages>
</library>
<library name="SparkFun-LED">
<description>&lt;h3&gt;SparkFun Electronics' preferred foot prints&lt;/h3&gt;
In this library you'll find discrete LEDs for illumination or indication, but no displays.&lt;br&gt;&lt;br&gt;
We've spent an enormous amount of time creating and checking these footprints and parts, but it is the end user's responsibility to ensure correctness and suitablity for a given componet or application. If you enjoy using this library, please buy one of our products at www.sparkfun.com.
&lt;br&gt;&lt;br&gt;
&lt;b&gt;Licensing:&lt;/b&gt; Creative Commons ShareAlike 4.0 International - https://creativecommons.org/licenses/by-sa/4.0/ 
&lt;br&gt;&lt;br&gt;
You are welcome to use this library for commercial purposes. For attribution, we ask that when you begin to sell your device using our footprint, you email us with a link to the product being sold. We want bragging rights that we helped (in a very small part) to create your 8th world wonder. We would like the opportunity to feature your device on our homepage.</description>
<packages>
<package name="LED-0603">
<wire x1="0.46" y1="0.17" x2="0" y2="0.17" width="0.2032" layer="21"/>
<wire x1="-0.46" y1="0.17" x2="0" y2="0.17" width="0.2032" layer="21"/>
<wire x1="0" y1="0.17" x2="0.2338" y2="-0.14" width="0.2032" layer="21"/>
<wire x1="-0.0254" y1="0.1546" x2="-0.2184" y2="-0.14" width="0.2032" layer="21"/>
<smd name="C" x="0" y="0.877" dx="1" dy="1" layer="1" roundness="30"/>
<smd name="A" x="0" y="-0.877" dx="1" dy="1" layer="1" roundness="30"/>
<text x="-0.6985" y="-0.889" size="0.4064" layer="25" rot="R90">&gt;NAME</text>
<text x="1.0795" y="-1.016" size="0.4064" layer="27" rot="R90">&gt;VALUE</text>
</package>
</packages>
</library>
</libraries>
<attributes>
</attributes>
<variantdefs>
</variantdefs>
<classes>
<class number="0" name="default" width="0" drill="0">
</class>
</classes>
<designrules name="OSHPark-4layer-removed_layers">
<description language="de">&lt;b&gt;EAGLE Design Rules&lt;/b&gt;
&lt;p&gt;
Die Standard-Design-Rules sind so gewählt, dass sie für 
die meisten Anwendungen passen. Sollte ihre Platine 
besondere Anforderungen haben, treffen Sie die erforderlichen
Einstellungen hier und speichern die Design Rules unter 
einem neuen Namen ab.</description>
<description language="en">&lt;b&gt;Laen's PCB Order Design Rules&lt;/b&gt;
&lt;p&gt;
Please make sure your boards conform to these design rules.</description>
<param name="layerSetup" value="(1*16)"/>
<param name="mtCopper" value="0.035559375mm 0.01778125mm 0.0356mm 0.0356mm 0.0356mm 0.0356mm 0.0356mm 0.0356mm 0.0356mm 0.0356mm 0.0356mm 0.0356mm 0.0356mm 0.0356mm 0.01778125mm 0.035559375mm"/>
<param name="mtIsolate" value="0.17018125mm 47mil 0.2007mm 0.1499mm 0.2007mm 0.1499mm 0.2007mm 0.1499mm 0.2007mm 0.1499mm 0.2007mm 0.1499mm 0.2007mm 0.1499mm 0.17018125mm"/>
<param name="mdWireWire" value="5mil"/>
<param name="mdWirePad" value="5mil"/>
<param name="mdWireVia" value="5mil"/>
<param name="mdPadPad" value="5mil"/>
<param name="mdPadVia" value="5mil"/>
<param name="mdViaVia" value="5mil"/>
<param name="mdSmdPad" value="5mil"/>
<param name="mdSmdVia" value="5mil"/>
<param name="mdSmdSmd" value="5mil"/>
<param name="mdViaViaSameLayer" value="8mil"/>
<param name="mnLayersViaInSmd" value="2"/>
<param name="mdCopperDimension" value="15mil"/>
<param name="mdDrill" value="6mil"/>
<param name="mdSmdStop" value="0mil"/>
<param name="msWidth" value="5mil"/>
<param name="msDrill" value="10mil"/>
<param name="msMicroVia" value="10mil"/>
<param name="msBlindViaRatio" value="0.5"/>
<param name="rvPadTop" value="0.25"/>
<param name="rvPadInner" value="0.25"/>
<param name="rvPadBottom" value="0.25"/>
<param name="rvViaOuter" value="0.25"/>
<param name="rvViaInner" value="0.25"/>
<param name="rvMicroViaOuter" value="0.25"/>
<param name="rvMicroViaInner" value="0.25"/>
<param name="rlMinPadTop" value="4mil"/>
<param name="rlMaxPadTop" value="20mil"/>
<param name="rlMinPadInner" value="4mil"/>
<param name="rlMaxPadInner" value="20mil"/>
<param name="rlMinPadBottom" value="4mil"/>
<param name="rlMaxPadBottom" value="20mil"/>
<param name="rlMinViaOuter" value="4mil"/>
<param name="rlMaxViaOuter" value="20mil"/>
<param name="rlMinViaInner" value="4mil"/>
<param name="rlMaxViaInner" value="20mil"/>
<param name="rlMinMicroViaOuter" value="4mil"/>
<param name="rlMaxMicroViaOuter" value="20mil"/>
<param name="rlMinMicroViaInner" value="4mil"/>
<param name="rlMaxMicroViaInner" value="20mil"/>
<param name="psTop" value="-1"/>
<param name="psBottom" value="-1"/>
<param name="psFirst" value="-1"/>
<param name="psElongationLong" value="100"/>
<param name="psElongationOffset" value="100"/>
<param name="mvStopFrame" value="1"/>
<param name="mvCreamFrame" value="0"/>
<param name="mlMinStopFrame" value="4mil"/>
<param name="mlMaxStopFrame" value="4mil"/>
<param name="mlMinCreamFrame" value="0mil"/>
<param name="mlMaxCreamFrame" value="0mil"/>
<param name="mlViaStopLimit" value="0mil"/>
<param name="srRoundness" value="0"/>
<param name="srMinRoundness" value="0mil"/>
<param name="srMaxRoundness" value="0mil"/>
<param name="slThermalIsolate" value="10mil"/>
<param name="slThermalsForVias" value="0"/>
<param name="dpMaxLengthDifference" value="10mm"/>
<param name="dpGapFactor" value="2.5"/>
<param name="checkGrid" value="0"/>
<param name="checkAngle" value="0"/>
<param name="checkFont" value="1"/>
<param name="checkRestrict" value="1"/>
<param name="useDiameter" value="13"/>
<param name="maxErrors" value="50"/>
</designrules>
<autorouter>
<pass name="Default">
<param name="RoutingGrid" value="50mil"/>
<param name="AutoGrid" value="1"/>
<param name="Efforts" value="0"/>
<param name="TopRouterVariant" value="1"/>
<param name="tpViaShape" value="round"/>
<param name="PrefDir.1" value="a"/>
<param name="PrefDir.2" value="0"/>
<param name="PrefDir.3" value="0"/>
<param name="PrefDir.4" value="0"/>
<param name="PrefDir.5" value="0"/>
<param name="PrefDir.6" value="0"/>
<param name="PrefDir.7" value="0"/>
<param name="PrefDir.8" value="0"/>
<param name="PrefDir.9" value="0"/>
<param name="PrefDir.10" value="0"/>
<param name="PrefDir.11" value="0"/>
<param name="PrefDir.12" value="0"/>
<param name="PrefDir.13" value="0"/>
<param name="PrefDir.14" value="0"/>
<param name="PrefDir.15" value="0"/>
<param name="PrefDir.16" value="a"/>
<param name="cfVia" value="8"/>
<param name="cfNonPref" value="5"/>
<param name="cfChangeDir" value="2"/>
<param name="cfOrthStep" value="2"/>
<param name="cfDiagStep" value="3"/>
<param name="cfExtdStep" value="0"/>
<param name="cfBonusStep" value="1"/>
<param name="cfMalusStep" value="1"/>
<param name="cfPadImpact" value="4"/>
<param name="cfSmdImpact" value="4"/>
<param name="cfBusImpact" value="0"/>
<param name="cfHugging" value="3"/>
<param name="cfAvoid" value="4"/>
<param name="cfPolygon" value="10"/>
<param name="cfBase.1" value="0"/>
<param name="cfBase.2" value="1"/>
<param name="cfBase.3" value="1"/>
<param name="cfBase.4" value="1"/>
<param name="cfBase.5" value="1"/>
<param name="cfBase.6" value="1"/>
<param name="cfBase.7" value="1"/>
<param name="cfBase.8" value="1"/>
<param name="cfBase.9" value="1"/>
<param name="cfBase.10" value="1"/>
<param name="cfBase.11" value="1"/>
<param name="cfBase.12" value="1"/>
<param name="cfBase.13" value="1"/>
<param name="cfBase.14" value="1"/>
<param name="cfBase.15" value="1"/>
<param name="cfBase.16" value="0"/>
<param name="mnVias" value="20"/>
<param name="mnSegments" value="9999"/>
<param name="mnExtdSteps" value="9999"/>
<param name="mnRipupLevel" value="10"/>
<param name="mnRipupSteps" value="100"/>
<param name="mnRipupTotal" value="100"/>
</pass>
<pass name="Follow-me" refer="Default" active="yes">
</pass>
<pass name="Busses" refer="Default" active="yes">
<param name="cfNonPref" value="4"/>
<param name="cfBusImpact" value="4"/>
<param name="cfHugging" value="0"/>
<param name="mnVias" value="0"/>
</pass>
<pass name="Route" refer="Default" active="yes">
</pass>
<pass name="Optimize1" refer="Default" active="yes">
<param name="cfVia" value="99"/>
<param name="cfExtdStep" value="10"/>
<param name="cfHugging" value="1"/>
<param name="mnExtdSteps" value="1"/>
<param name="mnRipupLevel" value="0"/>
</pass>
<pass name="Optimize2" refer="Optimize1" active="yes">
<param name="cfNonPref" value="0"/>
<param name="cfChangeDir" value="6"/>
<param name="cfExtdStep" value="0"/>
<param name="cfBonusStep" value="2"/>
<param name="cfMalusStep" value="2"/>
<param name="cfPadImpact" value="2"/>
<param name="cfSmdImpact" value="2"/>
<param name="cfHugging" value="0"/>
</pass>
<pass name="Optimize3" refer="Optimize2" active="yes">
<param name="cfChangeDir" value="8"/>
<param name="cfPadImpact" value="0"/>
<param name="cfSmdImpact" value="0"/>
</pass>
<pass name="Optimize4" refer="Optimize3" active="yes">
<param name="cfChangeDir" value="25"/>
</pass>
</autorouter>
<elements>
<element name="U1" library="adafruit" package="FGPMMOPA6H" value="" x="57" y="66" locked="yes" rot="R90"/>
<element name="CR1220" library="adafruit" package="CR1220-SMD" value="" x="56" y="65" locked="yes" rot="MR90"/>
<element name="IC1" library="microchip-MCP125x-xxx" package="MSOP8" value="MCP1252-33X50" x="56.32" y="51.69" locked="yes" rot="MR90"/>
<element name="R_GPS_RX" library="SparkFun-Passives" package="0603-RES" value="330" x="63.76" y="55.39" locked="yes" rot="R90"/>
<element name="R_GPS_TX" library="SparkFun-Passives" package="0603-RES" value="330" x="62.3" y="55.39" locked="yes" rot="R90"/>
<element name="R_GPS_SHDN" library="SparkFun-Passives" package="0603-RES" value="10K" x="60.69" y="50.64" locked="yes" rot="MR180"/>
<element name="C_VIN_MCP1" library="SparkFun-Passives" package="0603-CAP" value="10 uF" x="55.11" y="53.92" locked="yes" rot="MR0"/>
<element name="C_VOU_MCP1" library="SparkFun-Passives" package="0603-CAP" value="10 uF" x="52.82" y="53.01" locked="yes" rot="MR270"/>
<element name="C_BACKUP_GPS" library="SparkFun-Passives" package="0603-CAP" value="1 uF" x="54.76" y="55.39" locked="yes" rot="R90"/>
<element name="C_VCC_GPS" library="SparkFun-Passives" package="0603-CAP" value="1 uF" x="50.2" y="55.39" locked="yes" rot="R90"/>
<element name="C_FLY_MCP1" library="SparkFun-Passives" package="0603-CAP" value="1 uF" x="59.8" y="53" locked="yes" rot="MR90"/>
<element name="U$1" library="myLib" package="MOLEX_5034800800" value="MOLEX_5034800800" x="57" y="46.7" locked="yes"/>
<element name="U$2" library="SparkFun-RF" package="RN41" value="BLUETOOTH-RN41&quot;" x="28" y="69" locked="yes" rot="MR0"/>
<element name="U$3" library="TI_MSP430_v16" package="PZ100" value="F66XX---PZ100" x="11" y="32" rot="R270"/>
<element name="JP1" library="SparkFun-Connectors" package="USB-MICROB" value="USB-MICROB" x="63" y="37" rot="MR270">
<attribute name="PROD_ID" value="CONN-09505" x="63" y="37" size="1.778" layer="28" rot="MR270" display="off"/>
</element>
<element name="BTCON1" library="myLib" package="MOLEX_5034800800" value="MOLEX_5034800800" x="20.2" y="72" locked="yes" rot="R270"/>
<element name="BTCON2" library="myLib" package="MOLEX_5034800800" value="MOLEX_5034800800" x="20.2" y="66.1" locked="yes" rot="R270"/>
<element name="IC2" library="microchip-MCP125x-xxx" package="MSOP8" value="MCP1252-33X50" x="26.4" y="67.4" locked="yes"/>
<element name="R_BT_SHDN" library="SparkFun-Passives" package="0603-RES" value="10K" x="24.7" y="72.4" locked="yes" rot="R90"/>
<element name="C_VIN_MCP2" library="SparkFun-Passives" package="0603-CAP" value="10 uF" x="28.5" y="66.2" locked="yes" rot="R270"/>
<element name="C_VOU_MCP2" library="SparkFun-Passives" package="0603-CAP" value="10 uF" x="27.6" y="64.1" locked="yes" rot="R180"/>
<element name="C_FLY_MCP2" library="SparkFun-Passives" package="0603-CAP" value="1 uF" x="28.5" y="69.2" locked="yes" rot="R270"/>
<element name="R_BT_AUTO" library="SparkFun-Passives" package="0603-RES" value="10K" x="29.8" y="72.2" locked="yes" rot="R270"/>
<element name="R_BT_FACT" library="SparkFun-Passives" package="0603-RES" value="1K" x="32.2" y="72.2" locked="yes" rot="R270"/>
<element name="R_BT_STATUS" library="SparkFun-Passives" package="0603-RES" value="1K" x="31" y="72.2" locked="yes" rot="R270"/>
<element name="R_BT_MSR" library="SparkFun-Passives" package="0603-RES" value="1K" x="32.2" y="65.8" locked="yes" rot="R90"/>
<element name="R_BT_BR" library="SparkFun-Passives" package="0603-RES" value="1K" x="31" y="65.8" locked="yes" rot="R270"/>
<element name="R_BT_CON" library="SparkFun-Passives" package="0603-RES" value="1K" x="28.6" y="72.2" locked="yes" rot="R270"/>
<element name="BT_LED_CON" library="SparkFun-LED" package="LED-0603" value="" x="17" y="66.8" locked="yes" rot="MR180"/>
<element name="R_BT_X" library="SparkFun-Passives" package="0603-RES" value="1K" x="17" y="71.7" locked="yes" rot="MR90"/>
<element name="BT_LED_X" library="SparkFun-LED" package="LED-0603" value="" x="17" y="74.7" locked="yes" rot="MR0"/>
<element name="R_BT_RST" library="SparkFun-Passives" package="0603-RES" value="1K" x="29.8" y="65.8" locked="yes" rot="R270"/>
<element name="C_BT_VDD" library="SparkFun-Passives" package="0603-CAP" value="0.1 uF" x="24.5" y="65" locked="yes" rot="R90"/>
</elements>
<signals>
<signal name="GPS_GPS_SHDN">
<contactref element="IC1" pad="7"/>
<contactref element="R_GPS_SHDN" pad="1"/>
<wire x1="59.84" y1="50.64" x2="59.115" y2="51.365" width="0.254" layer="16"/>
<wire x1="59.115" y1="51.365" x2="58.37" y2="51.365" width="0.254" layer="16"/>
<contactref element="U$1" pad="P$6"/>
<wire x1="57.8" y1="48" x2="57.8" y2="49.2" width="0.254" layer="1"/>
<via x="58.3" y="49.7" extent="1-16" drill="0.508"/>
<wire x1="57.8" y1="49.2" x2="58.3" y2="49.7" width="0.254" layer="1"/>
<wire x1="59.84" y1="50.64" x2="58.9" y2="49.7" width="0.6096" layer="16"/>
<wire x1="58.9" y1="49.7" x2="58.3" y2="49.7" width="0.6096" layer="16"/>
</signal>
<signal name="CF-">
<contactref element="IC1" pad="5"/>
<contactref element="C_FLY_MCP1" pad="2"/>
<wire x1="59.8" y1="53.85" x2="59.555" y2="53.85" width="0.254" layer="16"/>
<polygon width="0.254" layer="16">
<vertex x="60.2" y="54.3"/>
<vertex x="57.9" y="54.3"/>
<vertex x="57.9" y="52.6"/>
<vertex x="58.8" y="52.6"/>
<vertex x="58.8" y="53.4"/>
<vertex x="60.2" y="53.4"/>
</polygon>
</signal>
<signal name="V_GPS">
<contactref element="IC1" pad="2"/>
<contactref element="C_VOU_MCP1" pad="2"/>
<contactref element="U1" pad="P$1"/>
<contactref element="C_VCC_GPS" pad="2"/>
<wire x1="50.25" y1="58.5" x2="50.2" y2="58.45" width="0.6096" layer="1"/>
<wire x1="50.2" y1="58.45" x2="50.2" y2="56.24" width="0.6096" layer="1"/>
<wire x1="54.27" y1="51.365" x2="53.435" y2="51.365" width="0.4064" layer="16"/>
<wire x1="53.435" y1="51.365" x2="52.8" y2="52" width="0.4064" layer="16"/>
<wire x1="52.8" y1="52" x2="52.8" y2="52.14" width="0.4064" layer="16"/>
<wire x1="52.8" y1="52.14" x2="52.82" y2="52.16" width="0.4064" layer="16"/>
<wire x1="52.82" y1="52.16" x2="51.04" y2="52.16" width="0.8128" layer="16"/>
<wire x1="51.04" y1="52.16" x2="50.2" y2="53" width="0.8128" layer="16"/>
<wire x1="50.2" y1="53" x2="50.2" y2="60.1" width="0.8128" layer="16"/>
<via x="50" y="60.3" extent="1-16" drill="0.508"/>
<wire x1="50.25" y1="60.05" x2="50.25" y2="58.5" width="0.8128" layer="1"/>
<wire x1="50.25" y1="60.05" x2="50" y2="60.3" width="0.8128" layer="1"/>
<wire x1="50.2" y1="60.1" x2="50" y2="60.3" width="0.8128" layer="16"/>
</signal>
<signal name="V_GPS_BACKUP">
<contactref element="CR1220" pad="+$2"/>
<contactref element="CR1220" pad="+$1"/>
<contactref element="U1" pad="P$4"/>
<contactref element="C_BACKUP_GPS" pad="2"/>
<wire x1="54.75" y1="58.5" x2="54.76" y2="58.49" width="0.6096" layer="1"/>
<wire x1="54.76" y1="58.49" x2="54.76" y2="56.24" width="0.6096" layer="1"/>
<wire x1="54.75" y1="58.5" x2="54.75" y2="61.55" width="0.8128" layer="1"/>
<via x="54.75" y="61.55" extent="1-16" drill="0.508"/>
<wire x1="54.75" y1="61.55" x2="54.75" y2="58.05" width="0.8128" layer="16"/>
<wire x1="54.75" y1="58.05" x2="56" y2="56.8" width="0.8128" layer="16"/>
<wire x1="56" y1="73.2" x2="56" y2="71" width="0.8128" layer="16"/>
<via x="56" y="71" extent="1-16" drill="0.508"/>
<wire x1="54.75" y1="61.55" x2="56" y2="71" width="0" layer="19" extent="1-16"/>
</signal>
<signal name="N$1">
<contactref element="U1" pad="P$9"/>
<contactref element="R_GPS_TX" pad="2"/>
<wire x1="62.25" y1="58.5" x2="62.3" y2="58.45" width="0.6096" layer="1"/>
<wire x1="62.3" y1="58.45" x2="62.3" y2="56.24" width="0.6096" layer="1"/>
</signal>
<signal name="N$2">
<contactref element="U1" pad="P$10"/>
<contactref element="R_GPS_RX" pad="2"/>
<wire x1="63.75" y1="58.5" x2="63.76" y2="58.49" width="0.6096" layer="1"/>
<wire x1="63.76" y1="58.49" x2="63.76" y2="56.24" width="0.6096" layer="1"/>
</signal>
<signal name="GPS_RX">
<contactref element="R_GPS_RX" pad="1"/>
<wire x1="63.76" y1="54.54" x2="63.76" y2="51.56" width="0.6096" layer="1"/>
<wire x1="63.76" y1="51.56" x2="63.2" y2="51" width="0.6096" layer="1"/>
<contactref element="U$1" pad="P$8"/>
<wire x1="58.8" y1="48" x2="60.8" y2="50" width="0.254" layer="1"/>
<wire x1="60.8" y1="50" x2="62" y2="50" width="0.254" layer="1"/>
<wire x1="62" y1="50" x2="63" y2="51" width="0.254" layer="1"/>
<wire x1="63" y1="51" x2="63.2" y2="51" width="0.254" layer="1"/>
</signal>
<signal name="GPS_TX">
<contactref element="R_GPS_TX" pad="1"/>
<wire x1="62.3" y1="54.54" x2="62.3" y2="51.3" width="0.6096" layer="1"/>
<wire x1="62.3" y1="51.3" x2="62" y2="51" width="0.6096" layer="1"/>
<contactref element="U$1" pad="P$7"/>
<wire x1="62" y1="51" x2="60.9" y2="51" width="0.254" layer="1"/>
<wire x1="60.9" y1="51" x2="58.3" y2="48.4" width="0.254" layer="1"/>
<wire x1="58.3" y1="48.4" x2="58.3" y2="48" width="0.254" layer="1"/>
</signal>
<signal name="VBAT_GPS">
<contactref element="IC1" pad="8"/>
<contactref element="IC1" pad="3"/>
<contactref element="C_VIN_MCP1" pad="1"/>
<wire x1="54.27" y1="52.015" x2="55.285" y2="52.015" width="0.254" layer="16"/>
<wire x1="55.285" y1="52.015" x2="55.3" y2="52" width="0.254" layer="16"/>
<wire x1="55.3" y1="52" x2="55.96" y2="52.66" width="0.254" layer="16"/>
<wire x1="55.96" y1="52.66" x2="55.96" y2="53.92" width="0.254" layer="16"/>
<wire x1="55.96" y1="53.92" x2="55.96" y2="50.715" width="0.254" layer="16"/>
<wire x1="55.96" y1="50.715" x2="58.37" y2="50.715" width="0.254" layer="16"/>
<polygon width="0.254" layer="16">
<vertex x="55.3" y="54.3"/>
<vertex x="55.3" y="50.6"/>
<vertex x="57.6" y="50.6"/>
<vertex x="57.6" y="50.8"/>
<vertex x="56.9" y="50.8"/>
<vertex x="56.9" y="54.3"/>
</polygon>
<wire x1="55.96" y1="50.715" x2="55.96" y2="50.66" width="0.4064" layer="16"/>
<via x="55.9" y="49.7" extent="1-16" drill="0.508"/>
<contactref element="U$1" pad="P$3"/>
<wire x1="56.3" y1="48" x2="56.3" y2="49.3" width="0.254" layer="1"/>
<wire x1="56.3" y1="49.3" x2="55.9" y2="49.7" width="0.254" layer="1"/>
<wire x1="55.96" y1="50.66" x2="55.9" y2="50.6" width="0.6096" layer="16"/>
<wire x1="55.9" y1="50.6" x2="55.9" y2="49.7" width="0.6096" layer="16"/>
</signal>
<signal name="GPS_GPS_NRESET">
<contactref element="U1" pad="P$2"/>
<wire x1="51.75" y1="58.5" x2="51.75" y2="56.65" width="0.6096" layer="1"/>
<via x="51.75" y="56.65" extent="1-16" drill="0.508"/>
<wire x1="51.75" y1="56.65" x2="51.75" y2="53.75" width="0.6096" layer="16"/>
<via x="51.5" y="53.3" extent="1-16" drill="0.508"/>
<wire x1="51.75" y1="53.75" x2="51.5" y2="53.5" width="0.6096" layer="16"/>
<wire x1="51.5" y1="53.5" x2="51.5" y2="53.3" width="0.6096" layer="16"/>
<wire x1="51.5" y1="53.3" x2="51.5" y2="49.5" width="0.6096" layer="1"/>
<contactref element="U$1" pad="P$1"/>
<wire x1="55.3" y1="48" x2="55" y2="48" width="0.254" layer="1"/>
<wire x1="55" y1="48" x2="53" y2="48" width="0.6096" layer="1"/>
<wire x1="53" y1="48" x2="51.5" y2="49.5" width="0.6096" layer="1"/>
</signal>
<signal name="GPS_GPS_3DFIX">
<contactref element="U1" pad="P$5"/>
<wire x1="56.25" y1="58.5" x2="56.25" y2="51.25" width="0.6096" layer="1"/>
<contactref element="U$1" pad="P$4"/>
<wire x1="56.8" y1="48" x2="56.8" y2="50.7" width="0.254" layer="1"/>
<wire x1="56.8" y1="50.7" x2="56.25" y2="51.25" width="0.254" layer="1"/>
</signal>
<signal name="GPS_GPS_1PPS">
<contactref element="U1" pad="P$13"/>
<wire x1="60.75" y1="73.5" x2="60.75" y2="71.85" width="0.6096" layer="1"/>
<via x="60.75" y="71.85" extent="1-16" drill="0.508"/>
<wire x1="60.75" y1="71.85" x2="60.75" y2="63.75" width="0.6096" layer="16"/>
<wire x1="60.75" y1="63.75" x2="59" y2="62" width="0.6096" layer="16"/>
<wire x1="59" y1="62" x2="59" y2="56" width="0.6096" layer="16"/>
<via x="59" y="56" extent="1-16" drill="0.508"/>
<wire x1="59" y1="56" x2="58" y2="55" width="0.6096" layer="1"/>
<wire x1="58" y1="55" x2="58" y2="51" width="0.6096" layer="1"/>
<contactref element="U$1" pad="P$5"/>
<wire x1="57.3" y1="48" x2="57.3" y2="50.3" width="0.254" layer="1"/>
<wire x1="57.3" y1="50.3" x2="58" y2="51" width="0.254" layer="1"/>
</signal>
<signal name="GPS_GND">
<contactref element="CR1220" pad="-"/>
<contactref element="IC1" pad="4"/>
<contactref element="C_VIN_MCP1" pad="2"/>
<contactref element="R_GPS_SHDN" pad="2"/>
<contactref element="C_VOU_MCP1" pad="1"/>
<contactref element="IC1" pad="1"/>
<contactref element="U1" pad="P$12"/>
<contactref element="U1" pad="P$19"/>
<contactref element="U1" pad="P$3"/>
<contactref element="C_VCC_GPS" pad="1"/>
<contactref element="C_BACKUP_GPS" pad="1"/>
<contactref element="U1" pad="P$8"/>
<wire x1="54.26" y1="53.92" x2="54.26" y2="52.665" width="0.254" layer="16"/>
<wire x1="54.26" y1="52.665" x2="54.27" y2="52.665" width="0.254" layer="16"/>
<wire x1="54.26" y1="53.92" x2="54.26" y2="53.86" width="0.254" layer="16"/>
<polygon width="0.254" layer="16">
<vertex x="54.7" y="53.3"/>
<vertex x="54.7" y="54.3"/>
<vertex x="52.3" y="54.3"/>
<vertex x="52.3" y="53.3"/>
</polygon>
<polygon width="0.254" layer="16">
<vertex x="54.7" y="53.5"/>
<vertex x="54.7" y="52.6"/>
<vertex x="53.8" y="52.6"/>
<vertex x="53.8" y="53.5"/>
</polygon>
<wire x1="50.2" y1="54.54" x2="52.3" y2="54.54" width="0.6096" layer="1"/>
<polygon width="0.254" layer="1">
<vertex x="49.8" y="54.1"/>
<vertex x="55.2" y="54.2"/>
<vertex x="55.2" y="55.2"/>
<vertex x="49.8" y="55.2"/>
</polygon>
<wire x1="51.75" y1="73.5" x2="51.75" y2="71.95" width="0.6096" layer="1"/>
<via x="51.75" y="71.95" extent="1-16" drill="0.508"/>
<wire x1="56" y1="65" x2="53.5" y2="65" width="0.6096" layer="16"/>
<via x="53.5" y="65" extent="1-16" drill="0.508"/>
<wire x1="53.5" y1="65" x2="58.6" y2="65" width="0.6096" layer="16"/>
<via x="58.6" y="65" extent="1-16" drill="0.508"/>
<wire x1="62.25" y1="73.5" x2="62.25" y2="72.25" width="0.6096" layer="1"/>
<wire x1="62.25" y1="72.25" x2="62.2" y2="71.9" width="0.6096" layer="1"/>
<via x="62.2" y="71.9" extent="1-16" drill="0.508"/>
<wire x1="53.25" y1="58.5" x2="53.25" y2="60.05" width="0.8128" layer="1"/>
<via x="53.25" y="60.05" extent="1-16" drill="0.508"/>
<wire x1="60.75" y1="58.5" x2="60.75" y2="60.05" width="0.8128" layer="1"/>
<via x="60.75" y="60.05" extent="1-16" drill="0.508"/>
<via x="53" y="55" extent="1-16" drill="0.508"/>
<wire x1="52.3" y1="54.54" x2="53.3" y2="54.54" width="0.8128" layer="1"/>
<wire x1="61.54" y1="50.64" x2="61.54" y2="51.76" width="0.8128" layer="16"/>
<wire x1="61.54" y1="51.76" x2="61.3" y2="52" width="0.8128" layer="16"/>
<via x="61.3" y="52" extent="1-16" drill="0.508"/>
<via x="54.885" y="49.115" extent="1-16" drill="0.508"/>
<wire x1="52.82" y1="53.86" x2="52.82" y2="54.48" width="0.8128" layer="16"/>
<wire x1="52.82" y1="54.48" x2="53" y2="55" width="0.8128" layer="16"/>
<contactref element="U$1" pad="P$2"/>
<wire x1="55.8" y1="48" x2="55.8" y2="48.5" width="0.254" layer="1"/>
<wire x1="54.27" y1="50.715" x2="54.27" y2="49.73" width="0.4064" layer="16"/>
<wire x1="54.27" y1="49.73" x2="54.885" y2="49.115" width="0.4064" layer="16"/>
<wire x1="55.8" y1="48.5" x2="55.185" y2="49.115" width="0.4064" layer="1"/>
<wire x1="55.185" y1="49.115" x2="54.885" y2="49.115" width="0.4064" layer="1"/>
<wire x1="58.6" y1="65" x2="62.2" y2="71.9" width="0" layer="19" extent="1-1"/>
<wire x1="53.25" y1="60.05" x2="53.5" y2="65" width="0" layer="19" extent="1-16"/>
<wire x1="53" y1="55" x2="53.25" y2="58.5" width="0" layer="19" extent="1-1"/>
<wire x1="54.27" y1="50.715" x2="54.26" y2="52.665" width="0" layer="19" extent="16-16"/>
<wire x1="60.75" y1="60.05" x2="58.6" y2="65" width="0" layer="19" extent="1-1"/>
<wire x1="61.54" y1="50.64" x2="55.8" y2="48.5" width="0" layer="19" extent="1-16"/>
<wire x1="51.75" y1="71.95" x2="53.5" y2="65" width="0" layer="19" extent="1-16"/>
</signal>
<signal name="N$3">
<contactref element="IC1" pad="6"/>
<contactref element="C_FLY_MCP1" pad="1"/>
<wire x1="58.37" y1="52.015" x2="59.665" y2="52.015" width="0.254" layer="16"/>
<wire x1="59.665" y1="52.015" x2="59.8" y2="52.15" width="0.254" layer="16"/>
</signal>
<signal name="64">
<contactref element="U$3" pad="64"/>
</signal>
<signal name="25">
<contactref element="U$3" pad="25"/>
</signal>
<signal name="11">
<contactref element="U$3" pad="11"/>
</signal>
<signal name="89">
<contactref element="U$3" pad="89"/>
</signal>
<signal name="BT_BT_SHDN">
<contactref element="IC2" pad="7"/>
<contactref element="R_BT_SHDN" pad="1"/>
<contactref element="BTCON1" pad="P$6"/>
<wire x1="21.5" y1="71.2" x2="24.35" y2="71.2" width="0.3048" layer="1"/>
<wire x1="26.075" y1="69.45" x2="26.075" y2="70.175" width="0.3048" layer="1"/>
<wire x1="26.075" y1="70.175" x2="24.7" y2="71.55" width="0.3048" layer="1"/>
<wire x1="24.35" y1="71.2" x2="24.7" y2="71.55" width="0.3048" layer="1"/>
</signal>
<signal name="CF-1">
<contactref element="IC2" pad="5"/>
<contactref element="C_FLY_MCP2" pad="2"/>
<wire x1="28.5" y1="68.35" x2="28.475" y2="68.35" width="0.3048" layer="1"/>
<wire x1="28.475" y1="68.35" x2="27.375" y2="69.45" width="0.3048" layer="1"/>
</signal>
<signal name="BT_VBAT">
<contactref element="IC2" pad="8"/>
<contactref element="IC2" pad="3"/>
<contactref element="C_VIN_MCP2" pad="1"/>
<contactref element="BTCON1" pad="P$7"/>
<wire x1="22.5" y1="70.7" x2="23.2" y2="70" width="0.4064" layer="1"/>
<wire x1="22.5" y1="70.7" x2="21.5" y2="70.7" width="0.4064" layer="1"/>
<wire x1="23.2" y1="70" x2="24.875" y2="70" width="0.4064" layer="1"/>
<wire x1="24.875" y1="70" x2="25.425" y2="69.45" width="0.4064" layer="1"/>
<wire x1="26.725" y1="65.35" x2="26.725" y2="66.725" width="0.4064" layer="1"/>
<wire x1="26.725" y1="66.725" x2="27" y2="67" width="0.4064" layer="1"/>
<wire x1="27" y1="67" x2="28.45" y2="67" width="0.4064" layer="1"/>
<wire x1="28.45" y1="67" x2="28.5" y2="67.05" width="0.4064" layer="1"/>
<wire x1="25.425" y1="69.45" x2="25.425" y2="68.025" width="0.4064" layer="1"/>
<wire x1="25.425" y1="68.025" x2="26.725" y2="66.725" width="0.4064" layer="1"/>
<polygon width="0.254" layer="1">
<vertex x="22.7" y="70.7"/>
<vertex x="23.3" y="70.1"/>
<vertex x="23.3" y="69.2"/>
<vertex x="23" y="68.8"/>
<vertex x="23" y="67"/>
<vertex x="25.5" y="67"/>
<vertex x="26.5" y="66"/>
<vertex x="26.9" y="66"/>
<vertex x="27.5" y="67"/>
<vertex x="27.4" y="68.3"/>
<vertex x="25.9" y="68.3"/>
<vertex x="25.6" y="68.5" curve="39.307648"/>
<vertex x="24.9" y="70.7"/>
</polygon>
</signal>
<signal name="BT_GND">
<contactref element="IC2" pad="4"/>
<contactref element="R_BT_SHDN" pad="2"/>
<contactref element="IC2" pad="1"/>
<contactref element="C_VIN_MCP2" pad="2"/>
<contactref element="C_VOU_MCP2" pad="1"/>
<contactref element="BTCON2" pad="P$8"/>
<contactref element="R_BT_FACT" pad="2"/>
<contactref element="R_BT_AUTO" pad="2"/>
<contactref element="R_BT_MSR" pad="2"/>
<contactref element="BT_LED_CON" pad="C"/>
<contactref element="BT_LED_X" pad="C"/>
<contactref element="C_BT_VDD" pad="2"/>
<contactref element="U$2" pad="29"/>
<contactref element="U$2" pad="12"/>
<contactref element="U$2" pad="1"/>
<contactref element="U$2" pad="28"/>
<via x="34.6" y="63.8" extent="1-16" drill="0.6"/>
<via x="18.5" y="75.5" extent="1-16" drill="0.6"/>
<wire x1="18.6" y1="72.1" x2="19.7" y2="72.1" width="0.3048" layer="16"/>
<via x="19.9" y="63.4" extent="1-16" drill="0.6"/>
<wire x1="21.4" y1="62.4" x2="21.4" y2="62.8" width="0.3048" layer="16"/>
<wire x1="22.3" y1="64.6" x2="23.25" y2="64.6" width="0.3048" layer="1"/>
<wire x1="23.25" y1="64.6" x2="24.5" y2="65.85" width="0.3048" layer="1"/>
<wire x1="21.5" y1="64.3" x2="22" y2="64.3" width="0.3048" layer="1"/>
<wire x1="22" y1="64.3" x2="22.3" y2="64.6" width="0.3048" layer="1"/>
<contactref element="BTCON1" pad="P$1"/>
<wire x1="19.7" y1="72.1" x2="19.7" y2="74.3" width="0.3048" layer="16"/>
<wire x1="17.023" y1="65.9" x2="17" y2="65.923" width="0.3048" layer="16"/>
<wire x1="19.7" y1="74.3" x2="18.5" y2="75.5" width="0.3048" layer="16"/>
<wire x1="17" y1="75.577" x2="17.023" y2="75.5" width="0.3048" layer="16"/>
<wire x1="29.8" y1="71.35" x2="29.8" y2="69.7" width="0.8128" layer="1"/>
<wire x1="29.8" y1="69.7" x2="30.4" y2="69.1" width="0.8128" layer="1"/>
<wire x1="30.4" y1="69.1" x2="31.5" y2="69.1" width="0.8128" layer="1"/>
<wire x1="31.5" y1="69.1" x2="32.2" y2="69.8" width="0.8128" layer="1"/>
<wire x1="32.2" y1="71.35" x2="32.2" y2="69.8" width="0.8128" layer="1"/>
<wire x1="34.6" y1="63.8" x2="35" y2="64.2" width="0.8128" layer="1"/>
<wire x1="35" y1="64.2" x2="35" y2="68" width="0.8128" layer="1"/>
<wire x1="35" y1="68" x2="33.2" y2="69.8" width="0.8128" layer="1"/>
<wire x1="32.2" y1="69.8" x2="33.2" y2="69.8" width="0.8128" layer="1"/>
<wire x1="31.5" y1="69.1" x2="31.5" y2="68.7" width="0.4064" layer="1"/>
<wire x1="31.5" y1="68.7" x2="31.8" y2="68.4" width="0.4064" layer="1"/>
<wire x1="31.8" y1="68.4" x2="31.8" y2="68.2" width="0.4064" layer="1"/>
<wire x1="31.8" y1="68.2" x2="32.2" y2="67.8" width="0.4064" layer="1"/>
<wire x1="32.2" y1="67.8" x2="32.2" y2="66.65" width="0.4064" layer="1"/>
<wire x1="25.425" y1="65.35" x2="25.15" y2="65.35" width="0.4064" layer="1"/>
<wire x1="25.15" y1="65.35" x2="25" y2="65.35" width="0.8128" layer="1"/>
<wire x1="25" y1="65.35" x2="24.5" y2="65.85" width="0.8128" layer="1"/>
<wire x1="19.9" y1="63.4" x2="19.9" y2="63.1" width="0.8128" layer="1"/>
<wire x1="19.9" y1="63.1" x2="21" y2="62" width="0.8128" layer="1"/>
<wire x1="21" y1="62" x2="28" y2="62" width="0.8128" layer="1"/>
<wire x1="28" y1="62" x2="32.8" y2="62" width="0.8128" layer="1"/>
<wire x1="28.45" y1="64.1" x2="28" y2="64.55" width="0.8128" layer="1"/>
<wire x1="28" y1="64.55" x2="28" y2="65" width="0.8128" layer="1"/>
<wire x1="28.5" y1="65.35" x2="28.45" y2="65.3" width="0.8128" layer="1"/>
<wire x1="28.45" y1="65.3" x2="28.45" y2="64.1" width="0.8128" layer="1"/>
<wire x1="27.375" y1="65.35" x2="28.5" y2="65.35" width="0.6096" layer="1"/>
<wire x1="21.5" y1="64.3" x2="21.5" y2="64.1" width="0.4064" layer="1"/>
<wire x1="21.5" y1="64.1" x2="21.5" y2="63.9" width="0.8128" layer="1"/>
<wire x1="21.5" y1="63.9" x2="20.7" y2="63.1" width="0.8128" layer="1"/>
<wire x1="20.7" y1="63.1" x2="20.2" y2="63.1" width="0.8128" layer="1"/>
<polygon width="0.254" layer="1">
<vertex x="20" y="63"/>
<vertex x="22" y="63"/>
<vertex x="23" y="62"/>
<vertex x="20" y="62"/>
</polygon>
<wire x1="24.7" y1="73.25" x2="24.7" y2="73.3" width="1.016" layer="1"/>
<wire x1="21.5" y1="73.7" x2="21.8" y2="74" width="0.4064" layer="1"/>
<wire x1="21.8" y1="74" x2="22" y2="74" width="0.4064" layer="1"/>
<wire x1="22" y1="74" x2="22" y2="74.5" width="1.016" layer="1"/>
<wire x1="32.8" y1="62" x2="34.6" y2="63.8" width="0.8128" layer="1"/>
<wire x1="28.45" y1="64.1" x2="28.45" y2="62.45" width="0.8128" layer="1"/>
<wire x1="28.45" y1="62.45" x2="28" y2="62" width="0.8128" layer="1"/>
<wire x1="34" y1="75" x2="34" y2="72" width="1.016" layer="1"/>
<wire x1="34" y1="72" x2="33.35" y2="71.35" width="1.016" layer="1"/>
<wire x1="33.35" y1="71.35" x2="32.2" y2="71.35" width="1.016" layer="1"/>
<wire x1="24.7" y1="73.3" x2="23.5" y2="74.5" width="1.016" layer="1"/>
<wire x1="23.5" y1="74.5" x2="22" y2="74.5" width="1.016" layer="1"/>
<wire x1="34" y1="75" x2="33.5" y2="75.5" width="1.016" layer="1"/>
<wire x1="33.5" y1="75.5" x2="22" y2="75.5" width="1.016" layer="1"/>
<wire x1="22" y1="74.5" x2="22" y2="75.5" width="1.016" layer="1"/>
<wire x1="18.5" y1="75.5" x2="22" y2="75.5" width="1.016" layer="1"/>
<wire x1="17.023" y1="75.5" x2="18.5" y2="75.5" width="1.016" layer="16"/>
<wire x1="21.4" y1="62.8" x2="20.5" y2="62.8" width="1.016" layer="16"/>
<wire x1="19.9" y1="62.9" x2="19.1" y2="62.1" width="1.016" layer="16"/>
<wire x1="19.1" y1="62.1" x2="17.9" y2="62.1" width="1.016" layer="16"/>
<wire x1="17.9" y1="62.1" x2="17" y2="63" width="1.016" layer="16"/>
<wire x1="17" y1="63" x2="17" y2="65.923" width="1.016" layer="16"/>
<wire x1="17.023" y1="65.9" x2="18.6" y2="65.9" width="0.8128" layer="16"/>
<wire x1="34.6" y1="62.4" x2="34.6" y2="63.8" width="0.8128" layer="16"/>
<wire x1="20.5" y1="62.8" x2="19.9" y2="63.4" width="0.8128" layer="16"/>
<wire x1="19.9" y1="62.9" x2="19.9" y2="63.4" width="0.8128" layer="16"/>
<wire x1="20.2" y1="63.1" x2="19.9" y2="63.4" width="0.8128" layer="1"/>
</signal>
<signal name="N$4">
<contactref element="IC2" pad="6"/>
<contactref element="C_FLY_MCP2" pad="1"/>
<wire x1="26.725" y1="69.45" x2="26.725" y2="70.125" width="0.3048" layer="1"/>
<wire x1="26.725" y1="70.125" x2="26.9" y2="70.3" width="0.3048" layer="1"/>
<wire x1="26.9" y1="70.3" x2="28.25" y2="70.3" width="0.3048" layer="1"/>
<wire x1="28.25" y1="70.3" x2="28.5" y2="70.05" width="0.3048" layer="1"/>
</signal>
<signal name="N$9">
<contactref element="U$2" pad="15"/>
<contactref element="U$2" pad="16"/>
<wire x1="25" y1="75.6" x2="23.8" y2="75.6" width="0.6096" layer="16"/>
</signal>
<signal name="N$14">
<contactref element="U$2" pad="19"/>
<contactref element="R_BT_CON" pad="1"/>
<via x="28.6" y="74.2" extent="1-16" drill="0.6"/>
<wire x1="28.6" y1="75.6" x2="28.6" y2="74.2" width="0.3048" layer="16"/>
<wire x1="28.6" y1="73.05" x2="28.6" y2="74.2" width="0.3048" layer="1"/>
</signal>
<signal name="N$17">
<contactref element="U$2" pad="21"/>
<contactref element="R_BT_STATUS" pad="1"/>
<wire x1="31" y1="75.6" x2="31" y2="74.2" width="0.3048" layer="16"/>
<via x="31" y="74.2" extent="1-16" drill="0.6"/>
<wire x1="31" y1="74.2" x2="31" y2="73.05" width="0.3048" layer="1"/>
</signal>
<signal name="N$20">
<contactref element="U$2" pad="31"/>
<contactref element="R_BT_X" pad="1"/>
<wire x1="18.6" y1="70.9" x2="18.55" y2="70.95" width="0.3048" layer="16"/>
<wire x1="17" y1="70.85" x2="17.05" y2="70.9" width="0.3048" layer="16"/>
<wire x1="17.05" y1="70.9" x2="18.6" y2="70.9" width="0.8128" layer="16"/>
</signal>
<signal name="N$21">
<contactref element="U$2" pad="32"/>
</signal>
<signal name="N$22">
<contactref element="U$2" pad="33"/>
</signal>
<signal name="N$23">
<contactref element="U$2" pad="34"/>
</signal>
<signal name="BT_RX">
<contactref element="U$2" pad="13"/>
<contactref element="BTCON1" pad="P$2"/>
<via x="20.5" y="74.3" extent="1-16" drill="0.6"/>
<wire x1="21.4" y1="75.6" x2="21.4" y2="75.2" width="0.3048" layer="16"/>
<wire x1="21.4" y1="75.2" x2="20.5" y2="74.3" width="0.3048" layer="16"/>
<wire x1="21.5" y1="73.2" x2="21.1" y2="73.2" width="0.3048" layer="1"/>
<wire x1="21.1" y1="73.2" x2="20.5" y2="73.8" width="0.3048" layer="1"/>
<wire x1="20.5" y1="73.8" x2="20.5" y2="74.3" width="0.3048" layer="1"/>
</signal>
<signal name="BT_TX">
<contactref element="U$2" pad="14"/>
<contactref element="BTCON1" pad="P$3"/>
<via x="20.5" y="72.7" extent="1-16" drill="0.6"/>
<wire x1="22.6" y1="75.6" x2="22.6" y2="74.8" width="0.3048" layer="16"/>
<wire x1="22.6" y1="74.8" x2="20.5" y2="72.7" width="0.3048" layer="16"/>
<wire x1="21.5" y1="72.7" x2="20.5" y2="72.7" width="0.3048" layer="1"/>
</signal>
<signal name="BT_PIO3">
<contactref element="R_BT_AUTO" pad="1"/>
<contactref element="U$2" pad="20"/>
<via x="29.8" y="74.2" extent="1-16" drill="0.6"/>
<wire x1="29.8" y1="75.6" x2="29.8" y2="74.2" width="0.3048" layer="16"/>
<contactref element="BTCON1" pad="P$4"/>
<wire x1="28.6" y1="73" x2="22.6" y2="73" width="0.3048" layer="16"/>
<via x="22.6" y="73" extent="1-16" drill="0.6"/>
<wire x1="29.8" y1="73.05" x2="29.8" y2="74.2" width="0.3048" layer="1"/>
<wire x1="21.5" y1="72.2" x2="22" y2="72.2" width="0.3048" layer="1"/>
<wire x1="22.6" y1="73" x2="22.6" y2="72.8" width="0.3048" layer="1"/>
<wire x1="22.6" y1="72.8" x2="22" y2="72.2" width="0.3048" layer="1"/>
<wire x1="28.6" y1="73" x2="29.8" y2="74.2" width="0.3048" layer="16"/>
</signal>
<signal name="BT_PIO6">
<contactref element="U$2" pad="3"/>
<contactref element="R_BT_MSR" pad="1"/>
<via x="32.2" y="63.8" extent="1-16" drill="0.6"/>
<wire x1="32.2" y1="62.4" x2="32.2" y2="63.8" width="0.3048" layer="16"/>
<wire x1="32.2" y1="64.95" x2="32.2" y2="63.8" width="0.3048" layer="1"/>
<contactref element="BTCON1" pad="P$8"/>
<wire x1="21.5" y1="70.2" x2="21.8" y2="70.2" width="0.3048" layer="1"/>
<wire x1="21.8" y1="70.2" x2="22.5" y2="69.5" width="0.3048" layer="1"/>
<via x="22.5" y="69.5" extent="1-16" drill="0.6"/>
<wire x1="22.5" y1="69.5" x2="22.8" y2="69.2" width="0.3048" layer="16"/>
<wire x1="22.8" y1="69.2" x2="29" y2="69.2" width="0.3048" layer="16"/>
<via x="32.6" y="68.6" extent="1-16" drill="0.6"/>
<wire x1="34" y1="67.2" x2="34" y2="66" width="0.3048" layer="1"/>
<wire x1="34" y1="66" x2="33" y2="65" width="0.3048" layer="1"/>
<wire x1="33" y1="65" x2="32.45" y2="65" width="0.3048" layer="1"/>
<wire x1="32.45" y1="65" x2="32.2" y2="64.95" width="0.3048" layer="1"/>
<wire x1="34" y1="67.2" x2="32.6" y2="68.6" width="0.3048" layer="1"/>
<wire x1="32.6" y1="68.6" x2="29.6" y2="68.6" width="0.3048" layer="16"/>
<wire x1="29.6" y1="68.6" x2="29" y2="69.2" width="0.3048" layer="16"/>
</signal>
<signal name="BT_PIO5">
<contactref element="R_BT_STATUS" pad="2"/>
<contactref element="BTCON1" pad="P$5"/>
<wire x1="31" y1="71.35" x2="31" y2="70.1" width="0.3048" layer="1"/>
<via x="31" y="70.1" extent="1-16" drill="0.6"/>
<via x="23.3" y="72.2" extent="1-16" drill="0.6"/>
<wire x1="29.1" y1="72.2" x2="23.3" y2="72.2" width="0.3048" layer="16"/>
<wire x1="21.5" y1="71.7" x2="22.8" y2="71.7" width="0.3048" layer="1"/>
<wire x1="22.8" y1="71.7" x2="23.3" y2="72.2" width="0.3048" layer="1"/>
<wire x1="29.1" y1="72.2" x2="31" y2="70.3" width="0.3048" layer="16"/>
<wire x1="31" y1="70.3" x2="31" y2="70.1" width="0.3048" layer="16"/>
</signal>
<signal name="BT_MOSI">
<contactref element="U$2" pad="2"/>
<contactref element="BTCON2" pad="P$4"/>
<wire x1="32.4" y1="64.7" x2="30.5" y2="64.7" width="0.3048" layer="16"/>
<wire x1="30.5" y1="64.7" x2="28.6" y2="66.6" width="0.3048" layer="16"/>
<wire x1="28.6" y1="66.6" x2="22.7" y2="66.6" width="0.3048" layer="16"/>
<wire x1="33.4" y1="62.4" x2="33.4" y2="63.7" width="0.3048" layer="16"/>
<wire x1="33.4" y1="63.7" x2="32.4" y2="64.7" width="0.3048" layer="16"/>
<via x="22.5" y="66.4" extent="1-16" drill="0.6"/>
<wire x1="22.7" y1="66.6" x2="22.5" y2="66.4" width="0.3048" layer="16"/>
<wire x1="21.5" y1="66.3" x2="22.4" y2="66.3" width="0.3048" layer="1"/>
<wire x1="22.4" y1="66.3" x2="22.5" y2="66.4" width="0.3048" layer="1"/>
</signal>
<signal name="BT_MISO">
<contactref element="U$2" pad="24"/>
<contactref element="BTCON2" pad="P$3"/>
<wire x1="34.6" y1="75.6" x2="34.6" y2="66.2" width="0.3048" layer="16"/>
<wire x1="34.6" y1="66.2" x2="33.7" y2="65.3" width="0.3048" layer="16"/>
<wire x1="33.7" y1="65.3" x2="30.6" y2="65.3" width="0.3048" layer="16"/>
<wire x1="30.6" y1="65.3" x2="28.7" y2="67.2" width="0.3048" layer="16"/>
<wire x1="28.7" y1="67.2" x2="20.8" y2="67.2" width="0.3048" layer="16"/>
<via x="20" y="66.4" extent="1-16" drill="0.6"/>
<wire x1="21.5" y1="66.8" x2="20.4" y2="66.8" width="0.3048" layer="1"/>
<wire x1="20.8" y1="67.2" x2="20" y2="66.4" width="0.3048" layer="16"/>
<wire x1="20.4" y1="66.8" x2="20" y2="66.4" width="0.3048" layer="1"/>
</signal>
<signal name="BT_CSB">
<contactref element="U$2" pad="23"/>
<contactref element="BTCON2" pad="P$2"/>
<wire x1="33.4" y1="75.6" x2="33.4" y2="74.6" width="0.3048" layer="16"/>
<wire x1="33.4" y1="74.6" x2="34" y2="74" width="0.3048" layer="16"/>
<wire x1="34" y1="74" x2="34" y2="66.7" width="0.3048" layer="16"/>
<wire x1="34" y1="66.7" x2="33.3" y2="66" width="0.3048" layer="16"/>
<wire x1="33.3" y1="66" x2="30.6" y2="66" width="0.3048" layer="16"/>
<wire x1="30.6" y1="66" x2="28.8" y2="67.8" width="0.3048" layer="16"/>
<wire x1="28.8" y1="67.8" x2="20.3" y2="67.8" width="0.3048" layer="16"/>
<via x="20" y="67.5" extent="1-16" drill="0.6"/>
<wire x1="21.5" y1="67.3" x2="20.2" y2="67.3" width="0.3048" layer="1"/>
<wire x1="20.3" y1="67.8" x2="20" y2="67.5" width="0.3048" layer="16"/>
<wire x1="20.2" y1="67.3" x2="20" y2="67.5" width="0.3048" layer="1"/>
</signal>
<signal name="BT_CLK">
<contactref element="U$2" pad="6"/>
<contactref element="BTCON2" pad="P$7"/>
<via x="20.5" y="64.3" extent="1-16" drill="0.6"/>
<wire x1="21.5" y1="64.8" x2="21" y2="64.8" width="0.3048" layer="1"/>
<wire x1="21" y1="64.8" x2="20.5" y2="64.3" width="0.3048" layer="1"/>
<wire x1="20.8" y1="64.6" x2="22.9" y2="64.6" width="0.3048" layer="16"/>
<wire x1="22.9" y1="64.6" x2="23.8" y2="63.7" width="0.3048" layer="16"/>
<wire x1="23.8" y1="63.7" x2="24.4" y2="63.7" width="0.3048" layer="16"/>
<wire x1="24.4" y1="63.7" x2="25.4" y2="64.7" width="0.3048" layer="16"/>
<wire x1="20.8" y1="64.6" x2="20.5" y2="64.3" width="0.3048" layer="16"/>
<wire x1="25.8" y1="64.5" x2="25.8" y2="63.7" width="0.3048" layer="16"/>
<wire x1="25.8" y1="63.7" x2="26.2" y2="63.5" width="0.3048" layer="16" curve="90"/>
<wire x1="26.2" y1="63.5" x2="26.4" y2="63.7" width="0.3048" layer="16" curve="80.060691"/>
<wire x1="26.4" y1="63.7" x2="26.4" y2="64.4" width="0.3048" layer="16"/>
<wire x1="26.6" y1="64.7" x2="26.4" y2="64.4" width="0.3048" layer="16" curve="90"/>
<wire x1="27" y1="64.5" x2="26.6" y2="64.7" width="0.3048" layer="16" curve="90"/>
<wire x1="27" y1="63.7" x2="27" y2="64.5" width="0.3048" layer="16"/>
<wire x1="25.8" y1="64.5" x2="25.4" y2="64.7" width="0.3048" layer="16" curve="90"/>
<wire x1="27" y1="63.7" x2="27.4" y2="63.5" width="0.3048" layer="16" curve="90"/>
<wire x1="27.4" y1="63.5" x2="27.6" y2="63.7" width="0.3048" layer="16" curve="80.060691"/>
<wire x1="27.6" y1="63.7" x2="27.6" y2="64.4" width="0.3048" layer="16"/>
<wire x1="27.6" y1="64.4" x2="27.6" y2="64.5" width="0.3048" layer="16"/>
<wire x1="27.8" y1="64.7" x2="27.6" y2="64.4" width="0.3048" layer="16" curve="90"/>
<wire x1="28.2" y1="64.5" x2="27.8" y2="64.7" width="0.3048" layer="16" curve="90"/>
<wire x1="28.2" y1="63.7" x2="28.2" y2="64.5" width="0.3048" layer="16"/>
<wire x1="28.2" y1="63.7" x2="28.4" y2="63.5" width="0.3048" layer="16" curve="97.62815"/>
<wire x1="28.4" y1="63.5" x2="28.6" y2="63.3" width="0.3048" layer="16" curve="-90"/>
<wire x1="28.6" y1="63.3" x2="28.6" y2="62.4" width="0.3048" layer="16"/>
</signal>
<signal name="BT_BT_RESET">
<contactref element="R_BT_RST" pad="2"/>
<contactref element="U$2" pad="5"/>
<via x="29.6" y="63.8" extent="1-16" drill="0.6"/>
<contactref element="BTCON2" pad="P$6"/>
<via x="20.5" y="65.4" extent="1-16" drill="0.6"/>
<wire x1="20.8" y1="65.1" x2="20.5" y2="65.4" width="0.3048" layer="16"/>
<wire x1="21.5" y1="65.3" x2="20.6" y2="65.3" width="0.3048" layer="1"/>
<wire x1="20.6" y1="65.3" x2="20.5" y2="65.4" width="0.3048" layer="1"/>
<wire x1="20.8" y1="65.1" x2="23.1" y2="65.1" width="0.3048" layer="16"/>
<wire x1="23.1" y1="65.1" x2="24" y2="64.2" width="0.3048" layer="16"/>
<wire x1="28.2" y1="65.2" x2="25" y2="65.2" width="0.3048" layer="16"/>
<wire x1="25" y1="65.2" x2="24" y2="64.2" width="0.3048" layer="16"/>
<wire x1="29.8" y1="62.4" x2="29.7" y2="62.5" width="0.3048" layer="16"/>
<wire x1="29.8" y1="64.95" x2="29.7" y2="64.65" width="0.3048" layer="1"/>
<wire x1="29.7" y1="62.5" x2="29.7" y2="63.7" width="0.3048" layer="16"/>
<wire x1="29.7" y1="63.7" x2="29.6" y2="63.8" width="0.3048" layer="16"/>
<wire x1="28.2" y1="65.2" x2="29.6" y2="63.8" width="0.3048" layer="16"/>
<wire x1="29.7" y1="64.65" x2="29.7" y2="63.9" width="0.3048" layer="1"/>
<wire x1="29.7" y1="63.9" x2="29.6" y2="63.8" width="0.3048" layer="1"/>
</signal>
<signal name="BT_PIO7">
<contactref element="U$2" pad="4"/>
<contactref element="R_BT_BR" pad="2"/>
<via x="31" y="63.8" extent="1-16" drill="0.6"/>
<contactref element="BTCON2" pad="P$5"/>
<wire x1="28.8" y1="65.7" x2="23.5" y2="65.7" width="0.3048" layer="16"/>
<via x="23.4" y="65.8" extent="1-16" drill="0.6"/>
<wire x1="23.5" y1="65.7" x2="23.4" y2="65.8" width="0.3048" layer="16"/>
<wire x1="21.5" y1="65.8" x2="22" y2="65.8" width="0.3048" layer="1"/>
<wire x1="22" y1="65.8" x2="22.6" y2="65.2" width="0.3048" layer="1"/>
<wire x1="22.6" y1="65.2" x2="22.8" y2="65.2" width="0.3048" layer="1"/>
<wire x1="22.8" y1="65.2" x2="23.4" y2="65.8" width="0.3048" layer="1"/>
<wire x1="31" y1="62.4" x2="31" y2="63.8" width="0.3048" layer="16"/>
<wire x1="28.8" y1="65.7" x2="30.7" y2="63.8" width="0.3048" layer="16"/>
<wire x1="30.7" y1="63.8" x2="31" y2="63.8" width="0.3048" layer="16"/>
<wire x1="31" y1="64.95" x2="31" y2="63.8" width="0.3048" layer="1"/>
</signal>
<signal name="BT_PIO4">
<contactref element="R_BT_FACT" pad="1"/>
<contactref element="U$2" pad="22"/>
<via x="32.2" y="74.2" extent="1-16" drill="0.6"/>
<wire x1="32.2" y1="75.6" x2="32.2" y2="74.2" width="0.3048" layer="16"/>
<contactref element="BTCON2" pad="P$1"/>
<wire x1="32.2" y1="74.2" x2="33.4" y2="73" width="0.3048" layer="16"/>
<wire x1="33.4" y1="73" x2="33.4" y2="67" width="0.3048" layer="16"/>
<wire x1="30.8" y1="66.6" x2="28.8" y2="68.6" width="0.3048" layer="16"/>
<wire x1="30.8" y1="66.6" x2="33" y2="66.6" width="0.3048" layer="16"/>
<wire x1="33" y1="66.6" x2="33.4" y2="67" width="0.3048" layer="16"/>
<via x="20.7" y="68.6" extent="1-16" drill="0.6"/>
<wire x1="28.8" y1="68.6" x2="20.7" y2="68.6" width="0.3048" layer="16"/>
<wire x1="21.8" y1="67.8" x2="21.5" y2="67.8" width="0.3048" layer="1"/>
<wire x1="21.5" y1="67.8" x2="20.7" y2="68.6" width="0.3048" layer="1"/>
<wire x1="32.2" y1="73.05" x2="32.2" y2="74.2" width="0.3048" layer="1"/>
</signal>
<signal name="N$5">
<contactref element="R_BT_CON" pad="2"/>
<contactref element="BT_LED_CON" pad="A"/>
<wire x1="28.6" y1="71.35" x2="27.35" y2="71.35" width="0.3048" layer="1"/>
<wire x1="27.35" y1="71.35" x2="27.2" y2="71.2" width="0.3048" layer="1"/>
<via x="27.2" y="71.2" extent="1-16" drill="0.6"/>
<via x="20.3" y="70" extent="1-16" drill="0.6"/>
<via x="17.1" y="69" extent="1-16" drill="0.6"/>
<wire x1="27.2" y1="71.2" x2="21.5" y2="71.2" width="0.3048" layer="16"/>
<wire x1="21.5" y1="71.2" x2="20.3" y2="70" width="0.3048" layer="16"/>
<wire x1="18" y1="70" x2="20.3" y2="70" width="0.3048" layer="1"/>
<wire x1="18" y1="70" x2="18" y2="69.9" width="0.3048" layer="1"/>
<wire x1="18" y1="69.9" x2="17.1" y2="69" width="0.3048" layer="1"/>
<wire x1="17" y1="67.677" x2="17" y2="68.9" width="0.3048" layer="16"/>
<wire x1="17" y1="68.9" x2="17.1" y2="69" width="0.3048" layer="16"/>
</signal>
<signal name="N$7">
<contactref element="R_BT_X" pad="2"/>
<contactref element="BT_LED_X" pad="A"/>
<wire x1="17" y1="72.55" x2="17" y2="73.823" width="0.8128" layer="16"/>
</signal>
<signal name="V_BT">
<polygon width="0.3048" layer="1">
<vertex x="22.5" y="64.1"/>
<vertex x="27.5" y="64.2"/>
<vertex x="27.5" y="62.8"/>
<vertex x="23.8" y="62.8"/>
</polygon>
<contactref element="IC2" pad="2"/>
<contactref element="C_VOU_MCP2" pad="2"/>
<contactref element="R_BT_BR" pad="1"/>
<contactref element="U$2" pad="11"/>
<contactref element="C_BT_VDD" pad="1"/>
<contactref element="R_BT_RST" pad="1"/>
<via x="22.6" y="63.8" extent="1-16" drill="0.6"/>
<via x="31" y="67.8" extent="1-16" drill="0.6"/>
<wire x1="30" y1="66.65" x2="29.8" y2="66.65" width="0.3048" layer="1"/>
<wire x1="24.5" y1="64.15" x2="24.15" y2="63.8" width="0.3048" layer="1"/>
<wire x1="26.075" y1="65.35" x2="26.075" y2="64.675" width="0.6096" layer="1"/>
<wire x1="24.5" y1="64.15" x2="26.7" y2="64.15" width="0.8128" layer="1"/>
<wire x1="26.7" y1="64.15" x2="26.75" y2="64.1" width="0.8128" layer="1"/>
<wire x1="24.15" y1="63.8" x2="22.6" y2="63.8" width="0.8128" layer="1"/>
<wire x1="22.6" y1="62.4" x2="22.6" y2="63.8" width="0.8128" layer="16"/>
<wire x1="26.075" y1="64.675" x2="26.65" y2="64.1" width="0.6096" layer="1"/>
<wire x1="26.65" y1="64.1" x2="26.75" y2="64.1" width="0.6096" layer="1"/>
<wire x1="31" y1="66.65" x2="29.8" y2="66.65" width="0.8128" layer="1"/>
<wire x1="31" y1="66.65" x2="31" y2="67.8" width="0.8128" layer="1"/>
<wire x1="29.8" y1="66.65" x2="29.8" y2="68" width="0.8128" layer="1"/>
<wire x1="29.8" y1="68" x2="31" y2="68" width="0.8128" layer="1"/>
<wire x1="31" y1="68" x2="31" y2="67" width="0.8128" layer="1"/>
<wire x1="31" y1="67" x2="30" y2="67" width="0.8128" layer="1"/>
<wire x1="26.075" y1="65.35" x2="29.8" y2="66.65" width="0" layer="19" extent="1-1"/>
</signal>
</signals>
<errors>
<approved hash="5,1,d7e94493a56f2f35"/>
<approved hash="5,1,6239dd9bf4ab2b10"/>
<approved hash="5,16,5ae58abd7141b839"/>
<approved hash="5,1,a3b1335bd1375bdd"/>
<approved hash="5,1,dd854aa7af132531"/>
<approved hash="5,16,50e180c17f75b255"/>
<approved hash="5,16,2e0dfee50689cc61"/>
<approved hash="5,1,8532156aee9667ee"/>
<approved hash="5,1,832e0d6ef4fa613a"/>
<approved hash="5,1,8f361f16e0a26d82"/>
<approved hash="5,1,f1da6132995e13b6"/>
<approved hash="5,16,2255f20d0ad1c5a9"/>
<approved hash="5,16,1a498d6b68dfe2fd"/>
<approved hash="5,16,16f199337aa7eee5"/>
<approved hash="5,16,647df49716fb9c11"/>
<approved hash="5,16,1025835f62a3e8f9"/>
<approved hash="4,16,8ae02106360ef32e"/>
<approved hash="4,16,70e0b93f4937161e"/>
<approved hash="4,16,e0785d98f9663efb"/>
<approved hash="4,16,c17e7c9f69e08e7a"/>
<approved hash="5,16,9452ddf008e6876b"/>
<approved hash="4,16,90785daad354c8f3"/>
<approved hash="4,16,9179bca143de9862"/>
<approved hash="4,16,70e63906a70f7c2e"/>
<approved hash="4,16,6ae1a13fc636631e"/>
<approved hash="4,16,9a79bd87447885fa"/>
<approved hash="4,16,d97e6299f4e10d75"/>
<approved hash="4,1,a4159cf1e88c5861"/>
<approved hash="4,1,771d6ffabb8b2b69"/>
<approved hash="4,1,c3e63b020772f790"/>
<approved hash="4,1,acef840bd07a409b"/>
<approved hash="4,1,79f7510cbd612d83"/>
<approved hash="4,1,caf022140e68fe8a"/>
<approved hash="4,1,97f98f1ddb504bb5"/>
<approved hash="4,1,60c15826a45f14bd"/>
<approved hash="4,1,cdca252e7146e1a4"/>
<approved hash="4,1,9ed3f637c24db2af"/>
<approved hash="4,16,a2025cd29cd21206"/>
<approved hash="4,16,a58e2b1c2a1852ba"/>
<approved hash="4,16,ad3de49d63615997"/>
<approved hash="4,16,bbddcd5053ba4075"/>
<approved hash="4,16,c7fb98d4d2017f9c"/>
<approved hash="4,16,a932c680c962d196"/>
<approved hash="4,16,f7e791c3ea3a4e60"/>
<approved hash="4,16,dd1c9a4d9ad1a6f6"/>
<approved hash="4,16,44f0935c91abbb6b"/>
<approved hash="4,16,06b619839ba74493"/>
<approved hash="4,16,948e7465048fe483"/>
<approved hash="4,16,1fec7d4fecf93f09"/>
<approved hash="4,16,6b87d7292c678229"/>
</errors>
</board>
</drawing>
</eagle>
